(kicad_pcb (version 4) (host pcbnew 4.0.4+e1-6308~48~ubuntu16.04.1-stable)

  (general
    (links 10)
    (no_connects 1)
    (area 109.924999 59.924999 160.075001 110.075001)
    (thickness 1.6)
    (drawings 107)
    (tracks 17)
    (zones 0)
    (modules 8)
    (nets 4)
  )

  (page A4)
  (title_block
    (title "Learn to Solder - Underground Studio")
    (date 2016-10-28)
    (rev 1)
    (comment 1 "James Bastow")
  )

  (layers
    (0 F.Cu signal)
    (31 B.Cu signal)
    (32 B.Adhes user)
    (33 F.Adhes user)
    (34 B.Paste user)
    (35 F.Paste user)
    (36 B.SilkS user)
    (37 F.SilkS user)
    (38 B.Mask user)
    (39 F.Mask user)
    (40 Dwgs.User user)
    (41 Cmts.User user)
    (42 Eco1.User user)
    (43 Eco2.User user)
    (44 Edge.Cuts user)
    (45 Margin user)
    (46 B.CrtYd user)
    (47 F.CrtYd user)
    (48 B.Fab user)
    (49 F.Fab user)
  )

  (setup
    (last_trace_width 1)
    (trace_clearance 0.25)
    (zone_clearance 0.5)
    (zone_45_only no)
    (trace_min 0.2)
    (segment_width 0.15)
    (edge_width 0.15)
    (via_size 0.6)
    (via_drill 0.4)
    (via_min_size 0.4)
    (via_min_drill 0.3)
    (uvia_size 0.3)
    (uvia_drill 0.1)
    (uvias_allowed no)
    (uvia_min_size 0.2)
    (uvia_min_drill 0.1)
    (pcb_text_width 0.3)
    (pcb_text_size 1.5 1.5)
    (mod_edge_width 0.15)
    (mod_text_size 1 1)
    (mod_text_width 0.15)
    (pad_size 1.524 1.524)
    (pad_drill 0.762)
    (pad_to_mask_clearance 0.2)
    (aux_axis_origin 0 0)
    (visible_elements FFFFFF7F)
    (pcbplotparams
      (layerselection 0x010b0_80000001)
      (usegerberextensions true)
      (excludeedgelayer true)
      (linewidth 0.100000)
      (plotframeref false)
      (viasonmask false)
      (mode 1)
      (useauxorigin false)
      (hpglpennumber 1)
      (hpglpenspeed 20)
      (hpglpendiameter 15)
      (hpglpenoverlay 2)
      (psnegative false)
      (psa4output false)
      (plotreference false)
      (plotvalue false)
      (plotinvisibletext false)
      (padsonsilk false)
      (subtractmaskfromsilk false)
      (outputformat 1)
      (mirror false)
      (drillshape 0)
      (scaleselection 1)
      (outputdirectory Generated))
  )

  (net 0 "")
  (net 1 "Net-(BAT1-Pad1)")
  (net 2 "Net-(BAT1-Pad2)")
  (net 3 /MH)

  (net_class Default "This is the default net class."
    (clearance 0.25)
    (trace_width 1)
    (via_dia 0.6)
    (via_drill 0.4)
    (uvia_dia 0.3)
    (uvia_drill 0.1)
    (add_net /MH)
    (add_net "Net-(BAT1-Pad1)")
    (add_net "Net-(BAT1-Pad2)")
  )

  (module LOGO (layer F.Cu) (tedit 0) (tstamp 58175C69)
    (at 135 95)
    (fp_text reference G*** (at 0 0) (layer F.SilkS) hide
      (effects (font (thickness 0.3)))
    )
    (fp_text value LOGO (at 0.75 0) (layer F.SilkS) hide
      (effects (font (thickness 0.3)))
    )
    (fp_poly (pts (xy -4.939276 1.900061) (xy -4.839138 1.90753) (xy -4.756817 1.92132) (xy -4.683164 1.941828)
      (xy -4.494233 2.025189) (xy -4.329837 2.14272) (xy -4.191504 2.293057) (xy -4.080763 2.474833)
      (xy -4.076314 2.484019) (xy -4.029784 2.58086) (xy -4.000875 2.650059) (xy -3.993285 2.698395)
      (xy -4.010714 2.732648) (xy -4.056863 2.759594) (xy -4.135431 2.786012) (xy -4.250117 2.81868)
      (xy -4.260609 2.821666) (xy -4.364524 2.85076) (xy -4.454606 2.874981) (xy -4.522654 2.892197)
      (xy -4.560464 2.900277) (xy -4.56441 2.900615) (xy -4.586192 2.882205) (xy -4.612882 2.836698)
      (xy -4.623622 2.81223) (xy -4.699043 2.66426) (xy -4.79158 2.554903) (xy -4.901527 2.483925)
      (xy -5.029178 2.451091) (xy -5.08 2.448563) (xy -5.20895 2.464437) (xy -5.309684 2.511799)
      (xy -5.381524 2.590012) (xy -5.423794 2.698438) (xy -5.434967 2.782516) (xy -5.435889 2.849698)
      (xy -5.428169 2.908528) (xy -5.40826 2.962436) (xy -5.372617 3.014853) (xy -5.317693 3.069209)
      (xy -5.239944 3.128936) (xy -5.135822 3.197464) (xy -5.001783 3.278224) (xy -4.83428 3.374646)
      (xy -4.806876 3.390203) (xy -4.584561 3.524194) (xy -4.400904 3.653223) (xy -4.253038 3.780557)
      (xy -4.138094 3.909463) (xy -4.053205 4.043208) (xy -3.995502 4.185058) (xy -3.962119 4.338282)
      (xy -3.959923 4.355042) (xy -3.952073 4.569664) (xy -3.981736 4.769744) (xy -4.046875 4.952108)
      (xy -4.145455 5.113582) (xy -4.275441 5.250991) (xy -4.434798 5.361163) (xy -4.62149 5.440923)
      (xy -4.664464 5.453645) (xy -4.753381 5.471023) (xy -4.869314 5.483911) (xy -4.998406 5.491754)
      (xy -5.126803 5.493997) (xy -5.240651 5.490086) (xy -5.323416 5.480023) (xy -5.507799 5.421945)
      (xy -5.682803 5.327348) (xy -5.84088 5.202007) (xy -5.974481 5.051694) (xy -6.058478 4.917708)
      (xy -6.098242 4.835269) (xy -6.135699 4.746901) (xy -6.167574 4.661848) (xy -6.190591 4.589354)
      (xy -6.201473 4.538664) (xy -6.199366 4.520144) (xy -6.176384 4.512444) (xy -6.120909 4.498167)
      (xy -6.041908 4.479308) (xy -5.948344 4.457858) (xy -5.849184 4.43581) (xy -5.753392 4.415158)
      (xy -5.669933 4.397894) (xy -5.607773 4.386011) (xy -5.575875 4.381501) (xy -5.575648 4.3815)
      (xy -5.554952 4.399945) (xy -5.538355 4.444892) (xy -5.537246 4.450292) (xy -5.494181 4.587662)
      (xy -5.423681 4.710024) (xy -5.331807 4.812247) (xy -5.224617 4.889201) (xy -5.108172 4.935756)
      (xy -4.988532 4.946781) (xy -4.955476 4.942835) (xy -4.838125 4.903723) (xy -4.743195 4.834229)
      (xy -4.673336 4.741406) (xy -4.631199 4.632305) (xy -4.619433 4.513978) (xy -4.64069 4.393477)
      (xy -4.697619 4.277854) (xy -4.702771 4.270458) (xy -4.758632 4.211098) (xy -4.852788 4.13641)
      (xy -4.985489 4.046221) (xy -5.156985 3.940358) (xy -5.291666 3.861748) (xy -5.435094 3.778821)
      (xy -5.547795 3.711565) (xy -5.636282 3.655514) (xy -5.707065 3.606201) (xy -5.766657 3.559162)
      (xy -5.821569 3.509931) (xy -5.86156 3.470924) (xy -5.981636 3.323593) (xy -6.062645 3.160215)
      (xy -6.10533 2.979141) (xy -6.111027 2.917019) (xy -6.10612 2.706513) (xy -6.06608 2.513726)
      (xy -5.992034 2.341861) (xy -5.885108 2.194126) (xy -5.841365 2.149871) (xy -5.717902 2.050904)
      (xy -5.584443 1.978588) (xy -5.433674 1.930532) (xy -5.258283 1.904347) (xy -5.069416 1.897515)
      (xy -4.939276 1.900061)) (layer F.Mask) (width 0.01))
    (fp_poly (pts (xy -2.772833 2.921) (xy -2.391833 2.921) (xy -2.391833 3.407833) (xy -2.772833 3.407833)
      (xy -2.772833 4.1275) (xy -2.772726 4.321488) (xy -2.772244 4.477575) (xy -2.77115 4.60019)
      (xy -2.769204 4.693766) (xy -2.766169 4.762734) (xy -2.761804 4.811525) (xy -2.755873 4.844569)
      (xy -2.748136 4.866299) (xy -2.738355 4.881146) (xy -2.731874 4.888125) (xy -2.668835 4.928822)
      (xy -2.578783 4.958731) (xy -2.476574 4.973323) (xy -2.450041 4.974048) (xy -2.370666 4.974167)
      (xy -2.370666 5.476412) (xy -2.468871 5.489873) (xy -2.594421 5.500357) (xy -2.732459 5.501035)
      (xy -2.866478 5.492538) (xy -2.979973 5.475498) (xy -3.005666 5.469325) (xy -3.144414 5.415591)
      (xy -3.254177 5.338024) (xy -3.330038 5.240099) (xy -3.330064 5.24005) (xy -3.341465 5.21742)
      (xy -3.35088 5.193337) (xy -3.35856 5.163591) (xy -3.364755 5.123973) (xy -3.369714 5.070274)
      (xy -3.373688 4.998286) (xy -3.376926 4.903798) (xy -3.379677 4.782603) (xy -3.382192 4.630491)
      (xy -3.384721 4.443253) (xy -3.386666 4.28625) (xy -3.39725 3.418417) (xy -3.640666 3.405721)
      (xy -3.640666 2.921) (xy -3.386666 2.921) (xy -3.386666 2.201333) (xy -2.772833 2.201333)
      (xy -2.772833 2.921)) (layer F.Mask) (width 0.01))
    (fp_poly (pts (xy -1.407583 2.804583) (xy -1.397 3.852333) (xy -1.394445 4.097794) (xy -1.391942 4.304447)
      (xy -1.389174 4.475815) (xy -1.385824 4.615423) (xy -1.381572 4.726795) (xy -1.376102 4.813453)
      (xy -1.369096 4.878921) (xy -1.360236 4.926724) (xy -1.349205 4.960385) (xy -1.335684 4.983428)
      (xy -1.319357 4.999376) (xy -1.299904 5.011753) (xy -1.292073 5.016015) (xy -1.208844 5.040737)
      (xy -1.115386 5.029871) (xy -1.009228 4.982605) (xy -0.887899 4.898126) (xy -0.85725 4.873063)
      (xy -0.79375 4.819847) (xy -0.783166 3.812215) (xy -0.772583 2.804583) (xy -0.470958 2.79871)
      (xy -0.169333 2.792838) (xy -0.169333 5.461) (xy -0.762 5.461) (xy -0.762 5.163659)
      (xy -0.916321 5.279811) (xy -1.000325 5.339278) (xy -1.086626 5.394249) (xy -1.159754 5.435016)
      (xy -1.175612 5.442497) (xy -1.27783 5.474284) (xy -1.400914 5.49277) (xy -1.526426 5.496541)
      (xy -1.635928 5.484182) (xy -1.655483 5.479315) (xy -1.739999 5.439642) (xy -1.827553 5.372931)
      (xy -1.904891 5.291217) (xy -1.958762 5.206538) (xy -1.960771 5.202054) (xy -1.969373 5.180096)
      (xy -1.976672 5.154377) (xy -1.982799 5.121338) (xy -1.987884 5.077419) (xy -1.992056 5.019061)
      (xy -1.995446 4.942705) (xy -1.998184 4.844791) (xy -2.000399 4.721762) (xy -2.002221 4.570056)
      (xy -2.00378 4.386116) (xy -2.005207 4.166382) (xy -2.006394 3.952288) (xy -2.012537 2.792827)
      (xy -1.407583 2.804583)) (layer F.Mask) (width 0.01))
    (fp_poly (pts (xy 2.264834 5.461) (xy 1.7145 5.461) (xy 1.7145 5.30225) (xy 1.713722 5.22636)
      (xy 1.711662 5.170225) (xy 1.708737 5.144191) (xy 1.708143 5.1435) (xy 1.691064 5.157121)
      (xy 1.651578 5.193195) (xy 1.597507 5.244537) (xy 1.585124 5.256496) (xy 1.444754 5.368152)
      (xy 1.291059 5.447191) (xy 1.130792 5.491696) (xy 0.970707 5.499751) (xy 0.8255 5.472075)
      (xy 0.697219 5.408896) (xy 0.590682 5.309443) (xy 0.508799 5.179788) (xy 0.474827 5.106521)
      (xy 0.447246 5.035325) (xy 0.425481 4.960932) (xy 0.408957 4.878078) (xy 0.397102 4.781497)
      (xy 0.389338 4.665925) (xy 0.385094 4.526094) (xy 0.383793 4.35674) (xy 0.384158 4.286787)
      (xy 0.997412 4.286787) (xy 0.998282 4.455142) (xy 1.002186 4.590654) (xy 1.009795 4.698051)
      (xy 1.021776 4.782061) (xy 1.038799 4.847413) (xy 1.06153 4.898834) (xy 1.090639 4.941053)
      (xy 1.125718 4.977795) (xy 1.20479 5.024156) (xy 1.303031 5.039237) (xy 1.410002 5.022014)
      (xy 1.445305 5.009124) (xy 1.507487 4.975761) (xy 1.572399 4.930588) (xy 1.582209 4.922576)
      (xy 1.651 4.86457) (xy 1.651 3.39043) (xy 1.582209 3.332424) (xy 1.471968 3.258925)
      (xy 1.36218 3.221312) (xy 1.258295 3.219069) (xy 1.165761 3.251676) (xy 1.090028 3.318618)
      (xy 1.051187 3.382878) (xy 1.037715 3.414268) (xy 1.027079 3.447026) (xy 1.018872 3.486564)
      (xy 1.01269 3.53829) (xy 1.008128 3.607616) (xy 1.00478 3.699953) (xy 1.00224 3.82071)
      (xy 1.000105 3.975299) (xy 0.99891 4.080861) (xy 0.997412 4.286787) (xy 0.384158 4.286787)
      (xy 0.384861 4.152598) (xy 0.385898 4.053417) (xy 0.388246 3.86397) (xy 0.39069 3.711553)
      (xy 0.393585 3.590863) (xy 0.397285 3.496597) (xy 0.402143 3.423451) (xy 0.408513 3.366124)
      (xy 0.416749 3.319311) (xy 0.427204 3.277711) (xy 0.440233 3.23602) (xy 0.440476 3.235289)
      (xy 0.50264 3.082148) (xy 0.577374 2.964408) (xy 0.669361 2.875877) (xy 0.74992 2.826226)
      (xy 0.89793 2.772511) (xy 1.05123 2.759891) (xy 1.210544 2.788485) (xy 1.376595 2.858411)
      (xy 1.527175 2.95301) (xy 1.583385 2.992266) (xy 1.624724 3.01904) (xy 1.640108 3.026833)
      (xy 1.643061 3.006598) (xy 1.646115 2.949614) (xy 1.649107 2.861466) (xy 1.651876 2.747739)
      (xy 1.654259 2.614017) (xy 1.655934 2.481792) (xy 1.661584 1.93675) (xy 2.264834 1.925004)
      (xy 2.264834 5.461)) (layer F.Mask) (width 0.01))
    (fp_poly (pts (xy 5.255477 2.760622) (xy 5.326554 2.768453) (xy 5.516628 2.809998) (xy 5.684916 2.879387)
      (xy 5.826817 2.973807) (xy 5.93773 3.090443) (xy 5.98967 3.174155) (xy 6.022675 3.242934)
      (xy 6.048714 3.309045) (xy 6.068739 3.378954) (xy 6.083702 3.459123) (xy 6.094554 3.556016)
      (xy 6.102247 3.676096) (xy 6.107731 3.825828) (xy 6.11181 4.00384) (xy 6.11442 4.245029)
      (xy 6.111646 4.449015) (xy 6.102652 4.620681) (xy 6.086606 4.764913) (xy 6.062672 4.886594)
      (xy 6.030017 4.990609) (xy 5.987807 5.081843) (xy 5.935208 5.16518) (xy 5.907141 5.202401)
      (xy 5.800878 5.304828) (xy 5.662945 5.387882) (xy 5.500183 5.449763) (xy 5.319436 5.488671)
      (xy 5.127548 5.502804) (xy 4.93136 5.490363) (xy 4.857965 5.478458) (xy 4.690221 5.427657)
      (xy 4.536222 5.344664) (xy 4.40397 5.235222) (xy 4.301471 5.105075) (xy 4.27708 5.061604)
      (xy 4.247228 4.997602) (xy 4.223366 4.931498) (xy 4.204862 4.857734) (xy 4.19108 4.770757)
      (xy 4.181388 4.665008) (xy 4.175149 4.534934) (xy 4.171732 4.374977) (xy 4.1705 4.179582)
      (xy 4.170459 4.1275) (xy 4.784058 4.1275) (xy 4.784344 4.316526) (xy 4.785496 4.468026)
      (xy 4.788192 4.586807) (xy 4.793109 4.677678) (xy 4.800922 4.745444) (xy 4.81231 4.794914)
      (xy 4.827949 4.830894) (xy 4.848515 4.858192) (xy 4.874685 4.881615) (xy 4.8921 4.894874)
      (xy 4.989814 4.943096) (xy 5.107239 4.963057) (xy 5.23208 4.954202) (xy 5.352039 4.915977)
      (xy 5.352732 4.915652) (xy 5.420378 4.863938) (xy 5.464787 4.790619) (xy 5.476636 4.76098)
      (xy 5.485823 4.728498) (xy 5.492611 4.687847) (xy 5.497262 4.633702) (xy 5.500039 4.560737)
      (xy 5.501205 4.463628) (xy 5.501022 4.337047) (xy 5.499754 4.17567) (xy 5.498972 4.097394)
      (xy 5.497017 3.921481) (xy 5.494951 3.782843) (xy 5.492387 3.676423) (xy 5.488934 3.597163)
      (xy 5.484207 3.540006) (xy 5.477816 3.499895) (xy 5.469374 3.471772) (xy 5.458492 3.450579)
      (xy 5.448204 3.435799) (xy 5.370827 3.358727) (xy 5.274829 3.314319) (xy 5.152894 3.299244)
      (xy 5.148335 3.299207) (xy 5.0124 3.312339) (xy 4.907545 3.352958) (xy 4.834566 3.420735)
      (xy 4.826543 3.433018) (xy 4.814255 3.45528) (xy 4.804577 3.480493) (xy 4.797202 3.513685)
      (xy 4.791821 3.559887) (xy 4.788128 3.624128) (xy 4.785814 3.711437) (xy 4.784572 3.826844)
      (xy 4.784095 3.975377) (xy 4.784058 4.1275) (xy 4.170459 4.1275) (xy 4.171249 3.922676)
      (xy 4.174092 3.754555) (xy 4.179697 3.617528) (xy 4.188771 3.505987) (xy 4.202023 3.414321)
      (xy 4.220162 3.336923) (xy 4.243896 3.268182) (xy 4.273934 3.202491) (xy 4.291527 3.169058)
      (xy 4.387564 3.035763) (xy 4.515304 2.926292) (xy 4.670355 2.842342) (xy 4.848327 2.785615)
      (xy 5.044832 2.757808) (xy 5.255477 2.760622)) (layer F.Mask) (width 0.01))
    (fp_poly (pts (xy 3.243792 2.79871) (xy 3.545417 2.804583) (xy 3.545417 5.450417) (xy 3.243792 5.456289)
      (xy 2.942167 5.462162) (xy 2.942167 2.792838) (xy 3.243792 2.79871)) (layer F.Mask) (width 0.01))
    (fp_poly (pts (xy 3.556 2.3495) (xy 2.942167 2.3495) (xy 2.942167 1.799167) (xy 3.556 1.799167)
      (xy 3.556 2.3495)) (layer F.Mask) (width 0.01))
    (fp_poly (pts (xy 1.375834 -1.042299) (xy 1.278482 -1.063062) (xy 1.21066 -1.069593) (xy 1.133486 -1.065628)
      (xy 1.060801 -1.053284) (xy 1.006443 -1.034678) (xy 0.986307 -1.018388) (xy 0.987195 -0.993288)
      (xy 0.995782 -0.936839) (xy 1.010441 -0.858986) (xy 1.019587 -0.814917) (xy 1.047652 -0.605881)
      (xy 1.045836 -0.392299) (xy 1.015333 -0.185245) (xy 0.957338 0.004209) (xy 0.923118 0.07973)
      (xy 0.827949 0.222877) (xy 0.704152 0.335638) (xy 0.553341 0.417253) (xy 0.377128 0.466962)
      (xy 0.177128 0.484005) (xy 0.073312 0.48037) (xy -0.01385 0.474884) (xy -0.06934 0.474797)
      (xy -0.103681 0.482119) (xy -0.127399 0.49886) (xy -0.147479 0.522517) (xy -0.184621 0.588863)
      (xy -0.181522 0.64383) (xy -0.138059 0.689551) (xy -0.137907 0.68965) (xy -0.103486 0.704581)
      (xy -0.046724 0.717029) (xy 0.037796 0.727738) (xy 0.15549 0.737447) (xy 0.258968 0.743957)
      (xy 0.486419 0.760446) (xy 0.676155 0.782096) (xy 0.832604 0.810039) (xy 0.960189 0.845403)
      (xy 1.063339 0.88932) (xy 1.146479 0.942918) (xy 1.190086 0.981675) (xy 1.272025 1.089847)
      (xy 1.321214 1.219539) (xy 1.33924 1.375049) (xy 1.339369 1.385845) (xy 1.325234 1.531149)
      (xy 1.279533 1.656292) (xy 1.200334 1.763285) (xy 1.085705 1.854141) (xy 0.933716 1.930874)
      (xy 0.758873 1.990826) (xy 0.68637 2.009167) (xy 0.60916 2.022619) (xy 0.518028 2.032121)
      (xy 0.403759 2.038611) (xy 0.25714 2.043028) (xy 0.243417 2.043327) (xy 0.114199 2.04471)
      (xy -0.009473 2.043565) (xy -0.117436 2.040164) (xy -0.199525 2.034779) (xy -0.232833 2.030587)
      (xy -0.4159 1.987019) (xy -0.569556 1.926667) (xy -0.691467 1.851502) (xy -0.779298 1.763497)
      (xy -0.830712 1.664622) (xy -0.843375 1.556849) (xy -0.838568 1.519217) (xy -0.804368 1.439693)
      (xy -0.790022 1.422664) (xy -0.250747 1.422664) (xy -0.249887 1.455827) (xy -0.23009 1.520276)
      (xy -0.180278 1.569312) (xy -0.096317 1.605775) (xy 0.00126 1.628347) (xy 0.097773 1.639441)
      (xy 0.213178 1.64354) (xy 0.335336 1.641192) (xy 0.452108 1.632942) (xy 0.551355 1.619337)
      (xy 0.620938 1.600923) (xy 0.622248 1.600383) (xy 0.703899 1.5548) (xy 0.748538 1.499164)
      (xy 0.761327 1.434529) (xy 0.75729 1.397064) (xy 0.741001 1.367232) (xy 0.707656 1.343489)
      (xy 0.652451 1.324291) (xy 0.570583 1.308095) (xy 0.457247 1.293358) (xy 0.307639 1.278534)
      (xy 0.263677 1.274605) (xy -0.13183 1.239769) (xy -0.194094 1.309455) (xy -0.236377 1.367283)
      (xy -0.250747 1.422664) (xy -0.790022 1.422664) (xy -0.732004 1.353801) (xy -0.624499 1.264945)
      (xy -0.593323 1.24323) (xy -0.538626 1.206089) (xy -0.499909 1.179407) (xy -0.488467 1.17119)
      (xy -0.49808 1.154806) (xy -0.532254 1.120127) (xy -0.568397 1.087829) (xy -0.625426 1.032812)
      (xy -0.672212 0.976951) (xy -0.688472 0.951426) (xy -0.712475 0.871796) (xy -0.718192 0.775135)
      (xy -0.705611 0.682513) (xy -0.688626 0.636372) (xy -0.652351 0.585912) (xy -0.593494 0.52295)
      (xy -0.52436 0.458962) (xy -0.457254 0.405426) (xy -0.409459 0.375985) (xy -0.388661 0.363757)
      (xy -0.38452 0.348174) (xy -0.40081 0.322184) (xy -0.441307 0.278734) (xy -0.484573 0.235639)
      (xy -0.577779 0.130798) (xy -0.647805 0.019724) (xy -0.697981 -0.106137) (xy -0.731637 -0.25534)
      (xy -0.752104 -0.43644) (xy -0.753447 -0.455083) (xy -0.75408 -0.529167) (xy -0.15875 -0.529167)
      (xy -0.158024 -0.409742) (xy -0.155111 -0.323672) (xy -0.148906 -0.26199) (xy -0.138304 -0.215731)
      (xy -0.122203 -0.175929) (xy -0.113043 -0.158062) (xy -0.061592 -0.085064) (xy 0.007398 -0.036233)
      (xy 0.0635 -0.013325) (xy 0.116033 -0.008445) (xy 0.189895 -0.016557) (xy 0.267212 -0.034682)
      (xy 0.324459 -0.056826) (xy 0.374295 -0.094929) (xy 0.411266 -0.154615) (xy 0.437113 -0.241255)
      (xy 0.453578 -0.360225) (xy 0.460991 -0.478011) (xy 0.459979 -0.664309) (xy 0.4395 -0.814086)
      (xy 0.39891 -0.928741) (xy 0.337562 -1.009673) (xy 0.254811 -1.058282) (xy 0.186179 -1.073564)
      (xy 0.071386 -1.07043) (xy -0.02012 -1.032095) (xy -0.089343 -0.95803) (xy -0.111999 -0.916173)
      (xy -0.13146 -0.869114) (xy -0.144711 -0.821016) (xy -0.152898 -0.762386) (xy -0.157168 -0.683734)
      (xy -0.158667 -0.575567) (xy -0.15875 -0.529167) (xy -0.75408 -0.529167) (xy -0.755484 -0.693456)
      (xy -0.727366 -0.906542) (xy -0.669727 -1.092914) (xy -0.5832 -1.251145) (xy -0.468419 -1.379807)
      (xy -0.326019 -1.477474) (xy -0.29192 -1.494257) (xy -0.232869 -1.520208) (xy -0.181753 -1.537624)
      (xy -0.127655 -1.548195) (xy -0.059658 -1.553607) (xy 0.033154 -1.555549) (xy 0.105834 -1.55575)
      (xy 0.279574 -1.549698) (xy 0.421295 -1.529758) (xy 0.539799 -1.493251) (xy 0.643889 -1.437503)
      (xy 0.738465 -1.36336) (xy 0.839939 -1.272126) (xy 0.933261 -1.368095) (xy 1.031069 -1.453246)
      (xy 1.135923 -1.518316) (xy 1.236995 -1.557469) (xy 1.301047 -1.566333) (xy 1.375834 -1.566333)
      (xy 1.375834 -1.042299)) (layer F.Mask) (width 0.01))
    (fp_poly (pts (xy -11.853333 -1.115092) (xy -11.853195 -0.842778) (xy -11.852729 -0.609538) (xy -11.851862 -0.412115)
      (xy -11.850518 -0.24725) (xy -11.848624 -0.111687) (xy -11.846103 -0.002166) (xy -11.842883 0.08457)
      (xy -11.838887 0.15178) (xy -11.834042 0.20272) (xy -11.828273 0.24065) (xy -11.821628 0.268414)
      (xy -11.770643 0.390111) (xy -11.69795 0.478609) (xy -11.600013 0.536308) (xy -11.473301 0.565609)
      (xy -11.377083 0.57057) (xy -11.225471 0.55516) (xy -11.102823 0.508896) (xy -11.009062 0.431725)
      (xy -10.944111 0.323598) (xy -10.924196 0.264583) (xy -10.918515 0.222168) (xy -10.913638 0.139287)
      (xy -10.909559 0.01566) (xy -10.906275 -0.148991) (xy -10.90378 -0.354947) (xy -10.90207 -0.602486)
      (xy -10.90114 -0.891888) (xy -10.900951 -1.105958) (xy -10.900833 -2.391833) (xy -10.221494 -2.391833)
      (xy -10.228449 -1.021292) (xy -10.229924 -0.744561) (xy -10.2314 -0.506871) (xy -10.232976 -0.304929)
      (xy -10.234755 -0.135441) (xy -10.236837 0.004885) (xy -10.239325 0.119341) (xy -10.242318 0.211222)
      (xy -10.245918 0.283819) (xy -10.250227 0.340425) (xy -10.255345 0.384333) (xy -10.261374 0.418837)
      (xy -10.268415 0.447228) (xy -10.274146 0.465667) (xy -10.35511 0.65798) (xy -10.459982 0.817863)
      (xy -10.590228 0.946232) (xy -10.747311 1.044007) (xy -10.932695 1.112105) (xy -11.147845 1.151446)
      (xy -11.385761 1.163001) (xy -11.558564 1.156908) (xy -11.701352 1.139675) (xy -11.786419 1.121147)
      (xy -11.984311 1.050437) (xy -12.152248 0.949815) (xy -12.290252 0.819258) (xy -12.398345 0.658747)
      (xy -12.476551 0.468258) (xy -12.481893 0.450437) (xy -12.489205 0.421581) (xy -12.495526 0.386577)
      (xy -12.500952 0.342144) (xy -12.50558 0.284999) (xy -12.509507 0.211863) (xy -12.512829 0.119454)
      (xy -12.515643 0.004491) (xy -12.518045 -0.136308) (xy -12.520132 -0.306222) (xy -12.522001 -0.508535)
      (xy -12.523747 -0.746526) (xy -12.525468 -1.023476) (xy -12.525517 -1.031875) (xy -12.533449 -2.391833)
      (xy -11.853333 -2.391833) (xy -11.853333 -1.115092)) (layer F.Mask) (width 0.01))
    (fp_poly (pts (xy -5.312833 1.121833) (xy -5.863166 1.121833) (xy -5.863166 0.795692) (xy -5.970726 0.903817)
      (xy -6.049217 0.972998) (xy -6.141693 1.040785) (xy -6.208851 1.081676) (xy -6.283359 1.11831)
      (xy -6.348885 1.140549) (xy -6.422648 1.152674) (xy -6.519333 1.158861) (xy -6.615174 1.161002)
      (xy -6.683909 1.156439) (xy -6.740534 1.142908) (xy -6.800042 1.118145) (xy -6.805237 1.115677)
      (xy -6.925284 1.039023) (xy -7.021708 0.933677) (xy -7.096421 0.796669) (xy -7.151336 0.625025)
      (xy -7.166708 0.553763) (xy -7.17556 0.484236) (xy -7.182955 0.379805) (xy -7.188852 0.247872)
      (xy -7.193211 0.095842) (xy -7.195991 -0.06888) (xy -7.19642 -0.131697) (xy -6.582366 -0.131697)
      (xy -6.581023 0.019887) (xy -6.578203 0.160368) (xy -6.573901 0.28212) (xy -6.568114 0.377516)
      (xy -6.560839 0.438932) (xy -6.560097 0.442599) (xy -6.518189 0.561787) (xy -6.450924 0.64742)
      (xy -6.383545 0.68958) (xy -6.33198 0.710181) (xy -6.292308 0.716875) (xy -6.245776 0.710282)
      (xy -6.191315 0.695944) (xy -6.121921 0.668594) (xy -6.045505 0.626984) (xy -6.01669 0.607807)
      (xy -5.926666 0.543157) (xy -5.926666 -0.952235) (xy -6.014595 -1.01593) (xy -6.134031 -1.083998)
      (xy -6.247174 -1.113463) (xy -6.349879 -1.105606) (xy -6.438002 -1.06171) (xy -6.5074 -0.983057)
      (xy -6.553929 -0.87093) (xy -6.559555 -0.847294) (xy -6.567015 -0.789242) (xy -6.573016 -0.696537)
      (xy -6.577555 -0.576803) (xy -6.580628 -0.437668) (xy -6.582233 -0.286757) (xy -6.582366 -0.131697)
      (xy -7.19642 -0.131697) (xy -7.197153 -0.23889) (xy -7.196656 -0.406785) (xy -7.194459 -0.565159)
      (xy -7.190524 -0.706608) (xy -7.184808 -0.823729) (xy -7.177273 -0.909117) (xy -7.174753 -0.926817)
      (xy -7.137986 -1.09487) (xy -7.085705 -1.230957) (xy -7.01392 -1.343848) (xy -6.955846 -1.408028)
      (xy -6.859195 -1.488511) (xy -6.759047 -1.538783) (xy -6.642412 -1.563865) (xy -6.539037 -1.569156)
      (xy -6.407268 -1.551782) (xy -6.260994 -1.500212) (xy -6.106667 -1.417032) (xy -6.029013 -1.364766)
      (xy -5.926666 -1.291237) (xy -5.926666 -2.391833) (xy -5.312833 -2.391833) (xy -5.312833 1.121833)) (layer F.Mask) (width 0.01))
    (fp_poly (pts (xy -3.583645 -1.553438) (xy -3.396169 -1.508707) (xy -3.23366 -1.432775) (xy -3.093155 -1.324512)
      (xy -3.053398 -1.283988) (xy -2.978667 -1.194231) (xy -2.920515 -1.101922) (xy -2.877137 -1.000347)
      (xy -2.846725 -0.882788) (xy -2.827473 -0.74253) (xy -2.817575 -0.572857) (xy -2.815166 -0.398279)
      (xy -2.815166 -0.0635) (xy -4.148666 -0.0635) (xy -4.148666 0.18737) (xy -4.147902 0.297114)
      (xy -4.144681 0.373904) (xy -4.137615 0.427106) (xy -4.125311 0.466087) (xy -4.106381 0.500212)
      (xy -4.101041 0.508215) (xy -4.034999 0.589809) (xy -3.964433 0.638968) (xy -3.876496 0.662275)
      (xy -3.791642 0.66675) (xy -3.663135 0.652106) (xy -3.564096 0.607361) (xy -3.493038 0.531295)
      (xy -3.448478 0.422689) (xy -3.438893 0.376913) (xy -3.425086 0.295195) (xy -2.82575 0.306917)
      (xy -2.83224 0.391583) (xy -2.866487 0.574317) (xy -2.937886 0.740643) (xy -3.042971 0.885891)
      (xy -3.178278 1.005391) (xy -3.340341 1.094475) (xy -3.359524 1.102167) (xy -3.449164 1.126654)
      (xy -3.567685 1.144843) (xy -3.702155 1.156164) (xy -3.839639 1.160046) (xy -3.967207 1.15592)
      (xy -4.071923 1.143216) (xy -4.106333 1.135082) (xy -4.293116 1.061211) (xy -4.45191 0.957343)
      (xy -4.580578 0.8255) (xy -4.676979 0.667705) (xy -4.720697 0.554214) (xy -4.732934 0.511086)
      (xy -4.742545 0.466363) (xy -4.749843 0.414434) (xy -4.755137 0.349688) (xy -4.758738 0.266517)
      (xy -4.760956 0.159308) (xy -4.762102 0.022454) (xy -4.762486 -0.149658) (xy -4.7625 -0.201084)
      (xy -4.762263 -0.383311) (xy -4.761347 -0.528818) (xy -4.75944 -0.643215) (xy -4.757751 -0.69001)
      (xy -4.148666 -0.69001) (xy -4.148666 -0.550333) (xy -3.423312 -0.550333) (xy -3.43379 -0.696787)
      (xy -3.454378 -0.829092) (xy -3.496918 -0.930727) (xy -3.564792 -1.009064) (xy -3.584086 -1.024371)
      (xy -3.654207 -1.055807) (xy -3.747912 -1.071014) (xy -3.849731 -1.070088) (xy -3.944188 -1.053125)
      (xy -4.013765 -1.021709) (xy -4.085208 -0.950487) (xy -4.129118 -0.855815) (xy -4.147701 -0.732275)
      (xy -4.148666 -0.69001) (xy -4.757751 -0.69001) (xy -4.756231 -0.732114) (xy -4.75141 -0.801124)
      (xy -4.744667 -0.855858) (xy -4.73569 -0.901926) (xy -4.724169 -0.94494) (xy -4.720673 -0.95646)
      (xy -4.645897 -1.133959) (xy -4.540898 -1.282337) (xy -4.406974 -1.400733) (xy -4.245422 -1.488287)
      (xy -4.05754 -1.544138) (xy -3.844624 -1.567424) (xy -3.799051 -1.568097) (xy -3.583645 -1.553438)) (layer F.Mask) (width 0.01))
    (fp_poly (pts (xy 4.550741 -1.552783) (xy 4.745589 -1.508344) (xy 4.910489 -1.434196) (xy 5.045797 -1.330078)
      (xy 5.151873 -1.195727) (xy 5.229075 -1.030881) (xy 5.270386 -0.876377) (xy 5.279029 -0.804798)
      (xy 5.284964 -0.692039) (xy 5.288197 -0.537827) (xy 5.288734 -0.341888) (xy 5.286883 -0.127)
      (xy 5.284252 0.057281) (xy 5.281348 0.204503) (xy 5.277832 0.319939) (xy 5.273364 0.408863)
      (xy 5.267604 0.476548) (xy 5.260211 0.528268) (xy 5.250846 0.569296) (xy 5.239783 0.60325)
      (xy 5.155735 0.777341) (xy 5.043992 0.919482) (xy 4.904148 1.030085) (xy 4.745843 1.105981)
      (xy 4.651041 1.130286) (xy 4.527545 1.147668) (xy 4.388497 1.157666) (xy 4.247039 1.159819)
      (xy 4.116314 1.153667) (xy 4.009464 1.138748) (xy 3.984639 1.132666) (xy 3.804165 1.064249)
      (xy 3.655112 0.968085) (xy 3.535749 0.842453) (xy 3.444348 0.68563) (xy 3.392047 0.542921)
      (xy 3.3805 0.481434) (xy 3.370379 0.385136) (xy 3.361837 0.261527) (xy 3.355028 0.11811)
      (xy 3.350106 -0.037612) (xy 3.347224 -0.198139) (xy 3.346538 -0.355967) (xy 3.347736 -0.462457)
      (xy 3.961085 -0.462457) (xy 3.96185 -0.292362) (xy 3.962857 -0.178931) (xy 3.96479 0.000713)
      (xy 3.966973 0.142976) (xy 3.969735 0.25281) (xy 3.973402 0.335168) (xy 3.978302 0.395002)
      (xy 3.984764 0.437264) (xy 3.993115 0.466906) (xy 4.003682 0.488881) (xy 4.007442 0.494885)
      (xy 4.075222 0.562067) (xy 4.171013 0.608111) (xy 4.284782 0.63045) (xy 4.406497 0.626515)
      (xy 4.469717 0.613201) (xy 4.535286 0.581895) (xy 4.599674 0.531016) (xy 4.612592 0.517333)
      (xy 4.677834 0.443027) (xy 4.677754 -0.196528) (xy 4.677526 -0.393169) (xy 4.676236 -0.551987)
      (xy 4.672896 -0.677494) (xy 4.666516 -0.774202) (xy 4.656108 -0.846621) (xy 4.640684 -0.899263)
      (xy 4.619254 -0.936639) (xy 4.590831 -0.96326) (xy 4.554424 -0.983638) (xy 4.509047 -1.002283)
      (xy 4.500439 -1.005579) (xy 4.402632 -1.029474) (xy 4.294686 -1.034744) (xy 4.191627 -1.022274)
      (xy 4.10848 -0.99295) (xy 4.090174 -0.981374) (xy 4.053699 -0.953012) (xy 4.024576 -0.923936)
      (xy 4.002035 -0.88929) (xy 3.985306 -0.844215) (xy 3.973617 -0.783852) (xy 3.966198 -0.703344)
      (xy 3.962278 -0.597831) (xy 3.961085 -0.462457) (xy 3.347736 -0.462457) (xy 3.3482 -0.503595)
      (xy 3.352364 -0.63352) (xy 3.359185 -0.738241) (xy 3.364763 -0.786857) (xy 3.407635 -0.985718)
      (xy 3.474225 -1.151365) (xy 3.56646 -1.286876) (xy 3.686267 -1.395332) (xy 3.782217 -1.454026)
      (xy 3.894767 -1.505935) (xy 4.005597 -1.540317) (xy 4.127785 -1.559911) (xy 4.274411 -1.567455)
      (xy 4.325584 -1.567777) (xy 4.550741 -1.552783)) (layer F.Mask) (width 0.01))
    (fp_poly (pts (xy 6.460554 -0.467358) (xy 6.466417 0.589285) (xy 6.5167 0.642794) (xy 6.58449 0.693933)
      (xy 6.661807 0.710627) (xy 6.75179 0.692347) (xy 6.857578 0.638561) (xy 6.957474 0.568241)
      (xy 7.069667 0.481685) (xy 7.069667 -1.524) (xy 7.6835 -1.524) (xy 7.6835 1.121833)
      (xy 7.090834 1.121833) (xy 7.090834 0.825994) (xy 6.943353 0.939943) (xy 6.824551 1.027084)
      (xy 6.724374 1.088053) (xy 6.63223 1.127314) (xy 6.537526 1.14933) (xy 6.429672 1.158565)
      (xy 6.424084 1.15876) (xy 6.295692 1.156587) (xy 6.196318 1.141374) (xy 6.171307 1.133614)
      (xy 6.074555 1.089173) (xy 6.002872 1.031748) (xy 5.943586 0.949673) (xy 5.916084 0.898637)
      (xy 5.852584 0.772583) (xy 5.846597 -0.375708) (xy 5.84061 -1.524) (xy 6.454691 -1.524)
      (xy 6.460554 -0.467358)) (layer F.Mask) (width 0.01))
    (fp_poly (pts (xy 12.551834 1.121833) (xy 12.0015 1.121833) (xy 12.0015 0.795975) (xy 11.897749 0.901929)
      (xy 11.820654 0.970302) (xy 11.727949 1.038161) (xy 11.659624 1.079647) (xy 11.583726 1.117182)
      (xy 11.518124 1.139955) (xy 11.445429 1.152346) (xy 11.348253 1.158739) (xy 11.345334 1.158861)
      (xy 11.249493 1.161002) (xy 11.180757 1.156439) (xy 11.124133 1.142908) (xy 11.064625 1.118145)
      (xy 11.059429 1.115677) (xy 10.939383 1.039023) (xy 10.842959 0.933677) (xy 10.768246 0.796669)
      (xy 10.713331 0.625025) (xy 10.697959 0.553763) (xy 10.689106 0.484236) (xy 10.681711 0.379805)
      (xy 10.675814 0.247872) (xy 10.671456 0.095842) (xy 10.668675 -0.06888) (xy 10.668247 -0.131697)
      (xy 11.282301 -0.131697) (xy 11.283643 0.019887) (xy 11.286464 0.160368) (xy 11.290766 0.28212)
      (xy 11.296553 0.377516) (xy 11.303828 0.438932) (xy 11.30457 0.442599) (xy 11.346477 0.561787)
      (xy 11.413743 0.64742) (xy 11.481122 0.68958) (xy 11.532687 0.710181) (xy 11.572359 0.716875)
      (xy 11.618891 0.710282) (xy 11.673351 0.695944) (xy 11.742746 0.668594) (xy 11.819161 0.626984)
      (xy 11.847976 0.607807) (xy 11.938 0.543157) (xy 11.938 -0.952235) (xy 11.850071 -1.01593)
      (xy 11.730636 -1.083998) (xy 11.617493 -1.113463) (xy 11.514788 -1.105606) (xy 11.426664 -1.06171)
      (xy 11.357266 -0.983057) (xy 11.310738 -0.87093) (xy 11.305112 -0.847294) (xy 11.297652 -0.789242)
      (xy 11.291651 -0.696537) (xy 11.287112 -0.576803) (xy 11.284038 -0.437668) (xy 11.282434 -0.286757)
      (xy 11.282301 -0.131697) (xy 10.668247 -0.131697) (xy 10.667514 -0.23889) (xy 10.668011 -0.406785)
      (xy 10.670207 -0.565159) (xy 10.674143 -0.706608) (xy 10.679858 -0.823729) (xy 10.687394 -0.909117)
      (xy 10.689914 -0.926817) (xy 10.726681 -1.09487) (xy 10.778962 -1.230957) (xy 10.850747 -1.343848)
      (xy 10.908821 -1.408028) (xy 11.005472 -1.488511) (xy 11.10562 -1.538783) (xy 11.222255 -1.563865)
      (xy 11.32563 -1.569156) (xy 11.457398 -1.551782) (xy 11.603673 -1.500212) (xy 11.758 -1.417032)
      (xy 11.835654 -1.364766) (xy 11.938 -1.291237) (xy 11.938 -2.391833) (xy 12.551834 -2.391833)
      (xy 12.551834 1.121833)) (layer F.Mask) (width 0.01))
    (fp_poly (pts (xy -8.161724 -1.557493) (xy -8.032725 -1.520834) (xy -7.930481 -1.456448) (xy -7.850587 -1.361947)
      (xy -7.813234 -1.293431) (xy -7.757583 -1.17475) (xy -7.751434 -0.026458) (xy -7.745285 1.121833)
      (xy -8.360833 1.121833) (xy -8.360833 0.098408) (xy -8.3613 -0.178952) (xy -8.36271 -0.414675)
      (xy -8.365078 -0.609444) (xy -8.368418 -0.763944) (xy -8.372746 -0.878859) (xy -8.378076 -0.954876)
      (xy -8.384295 -0.992318) (xy -8.427358 -1.057743) (xy -8.496573 -1.10438) (xy -8.575349 -1.121833)
      (xy -8.641524 -1.107929) (xy -8.725771 -1.070323) (xy -8.816157 -1.015175) (xy -8.886308 -0.961333)
      (xy -8.974666 -0.885701) (xy -8.974666 1.121833) (xy -9.5885 1.121833) (xy -9.5885 -1.524)
      (xy -8.995833 -1.524) (xy -8.995833 -1.227839) (xy -8.863541 -1.334683) (xy -8.720482 -1.439787)
      (xy -8.590442 -1.511525) (xy -8.465497 -1.55332) (xy -8.337727 -1.568596) (xy -8.321885 -1.568809)
      (xy -8.161724 -1.557493)) (layer F.Mask) (width 0.01))
    (fp_poly (pts (xy -1.037166 -0.913999) (xy -1.148291 -0.943581) (xy -1.301331 -0.971468) (xy -1.430016 -0.967665)
      (xy -1.532895 -0.932542) (xy -1.608517 -0.866466) (xy -1.636819 -0.819509) (xy -1.64538 -0.797739)
      (xy -1.652458 -0.769219) (xy -1.658188 -0.730022) (xy -1.66271 -0.676221) (xy -1.666161 -0.603889)
      (xy -1.668678 -0.509101) (xy -1.670399 -0.38793) (xy -1.671463 -0.23645) (xy -1.672006 -0.050734)
      (xy -1.672166 0.173145) (xy -1.672166 1.121833) (xy -2.286 1.121833) (xy -2.286 -1.524)
      (xy -1.693333 -1.524) (xy -1.690981 -1.17475) (xy -1.644532 -1.236873) (xy -1.543667 -1.361035)
      (xy -1.450059 -1.450635) (xy -1.356117 -1.510753) (xy -1.254252 -1.546473) (xy -1.160407 -1.561038)
      (xy -1.037166 -1.572213) (xy -1.037166 -0.913999)) (layer F.Mask) (width 0.01))
    (fp_poly (pts (xy 3.026834 -1.252361) (xy 3.026084 -1.141348) (xy 3.024022 -1.045957) (xy 3.020923 -0.973915)
      (xy 3.017067 -0.932951) (xy 3.015131 -0.926686) (xy 2.989797 -0.925415) (xy 2.938552 -0.935354)
      (xy 2.905933 -0.944325) (xy 2.807101 -0.965033) (xy 2.702916 -0.972276) (xy 2.608622 -0.965959)
      (xy 2.540635 -0.946588) (xy 2.494301 -0.91144) (xy 2.447434 -0.858899) (xy 2.440094 -0.84852)
      (xy 2.391834 -0.776906) (xy 2.391834 1.121833) (xy 1.778 1.121833) (xy 1.778 -1.524)
      (xy 2.370667 -1.524) (xy 2.371777 -1.349375) (xy 2.372701 -1.264575) (xy 2.375327 -1.216239)
      (xy 2.381443 -1.198495) (xy 2.392835 -1.205475) (xy 2.408819 -1.227667) (xy 2.518184 -1.362948)
      (xy 2.639129 -1.46637) (xy 2.766796 -1.534755) (xy 2.896327 -1.564926) (xy 2.926292 -1.566127)
      (xy 3.026834 -1.566333) (xy 3.026834 -1.252361)) (layer F.Mask) (width 0.01))
    (fp_poly (pts (xy 9.702943 -1.557493) (xy 9.831942 -1.520834) (xy 9.934185 -1.456448) (xy 10.01408 -1.361947)
      (xy 10.051432 -1.293431) (xy 10.107084 -1.17475) (xy 10.113233 -0.026458) (xy 10.119382 1.121833)
      (xy 9.503834 1.121833) (xy 9.503834 0.098408) (xy 9.503367 -0.178952) (xy 9.501957 -0.414675)
      (xy 9.499589 -0.609444) (xy 9.496249 -0.763944) (xy 9.491921 -0.878859) (xy 9.486591 -0.954876)
      (xy 9.480372 -0.992318) (xy 9.437309 -1.057743) (xy 9.368094 -1.10438) (xy 9.289317 -1.121833)
      (xy 9.223143 -1.107929) (xy 9.138895 -1.070323) (xy 9.04851 -1.015175) (xy 8.978359 -0.961333)
      (xy 8.89 -0.885701) (xy 8.89 1.121833) (xy 8.276167 1.121833) (xy 8.276167 -1.524)
      (xy 8.868834 -1.524) (xy 8.868834 -1.227839) (xy 9.001125 -1.334683) (xy 9.144184 -1.439787)
      (xy 9.274225 -1.511525) (xy 9.39917 -1.55332) (xy 9.52694 -1.568596) (xy 9.542782 -1.568809)
      (xy 9.702943 -1.557493)) (layer F.Mask) (width 0.01))
    (fp_poly (pts (xy 12.594167 -2.7305) (xy -12.594166 -2.7305) (xy -12.594166 -3.090333) (xy 12.594167 -3.090333)
      (xy 12.594167 -2.7305)) (layer F.Mask) (width 0.01))
    (fp_poly (pts (xy 1.453291 -5.029148) (xy 1.588365 -4.997762) (xy 1.707682 -4.937702) (xy 1.747403 -4.906815)
      (xy 1.813737 -4.840624) (xy 1.860306 -4.771567) (xy 1.890312 -4.690349) (xy 1.906956 -4.587677)
      (xy 1.913441 -4.454257) (xy 1.913795 -4.423833) (xy 1.915584 -4.180417) (xy 1.539875 -4.174637)
      (xy 1.164167 -4.168857) (xy 1.164167 -4.020216) (xy 1.166085 -3.937947) (xy 1.174096 -3.884852)
      (xy 1.191586 -3.847858) (xy 1.216121 -3.819621) (xy 1.268699 -3.782124) (xy 1.336092 -3.768266)
      (xy 1.360242 -3.767667) (xy 1.451054 -3.779479) (xy 1.513027 -3.818144) (xy 1.553485 -3.888507)
      (xy 1.556669 -3.897591) (xy 1.580563 -3.96875) (xy 1.742782 -3.974932) (xy 1.905 -3.981114)
      (xy 1.904535 -3.911432) (xy 1.884086 -3.80123) (xy 1.82905 -3.69489) (xy 1.746718 -3.60247)
      (xy 1.644381 -3.534027) (xy 1.624413 -3.525035) (xy 1.526357 -3.497253) (xy 1.407358 -3.4826)
      (xy 1.287191 -3.482621) (xy 1.2104 -3.492724) (xy 1.076205 -3.541322) (xy 0.964968 -3.62352)
      (xy 0.880963 -3.734933) (xy 0.828463 -3.871174) (xy 0.82453 -3.888757) (xy 0.814635 -3.964828)
      (xy 0.808543 -4.074877) (xy 0.806554 -4.210693) (xy 0.808229 -4.337001) (xy 0.813058 -4.480856)
      (xy 0.817938 -4.549653) (xy 1.164167 -4.549653) (xy 1.164167 -4.466167) (xy 1.566334 -4.466167)
      (xy 1.566334 -4.549653) (xy 1.549637 -4.643359) (xy 1.501357 -4.709657) (xy 1.424203 -4.745819)
      (xy 1.36525 -4.751917) (xy 1.272091 -4.735123) (xy 1.20618 -4.686559) (xy 1.170229 -4.608952)
      (xy 1.164167 -4.549653) (xy 0.817938 -4.549653) (xy 0.82083 -4.590422) (xy 0.833654 -4.673739)
      (xy 0.853641 -4.738842) (xy 0.8829 -4.79377) (xy 0.923542 -4.84656) (xy 0.949625 -4.875564)
      (xy 1.050627 -4.955068) (xy 1.174712 -5.007421) (xy 1.31217 -5.032241) (xy 1.453291 -5.029148)) (layer F.Mask) (width 0.01))
    (fp_poly (pts (xy -0.762 -5.164667) (xy -1.2065 -5.164667) (xy -1.2065 -3.513667) (xy -1.5875 -3.513667)
      (xy -1.5875 -5.164667) (xy -2.032 -5.164667) (xy -2.032 -5.503333) (xy -0.762 -5.503333)
      (xy -0.762 -5.164667)) (layer F.Mask) (width 0.01))
    (fp_poly (pts (xy -0.1905 -4.842781) (xy -0.112664 -4.911122) (xy -0.048051 -4.96035) (xy 0.020056 -5.001359)
      (xy 0.04019 -5.010807) (xy 0.128985 -5.031503) (xy 0.229193 -5.030314) (xy 0.322625 -5.008875)
      (xy 0.377285 -4.98051) (xy 0.409281 -4.955445) (xy 0.435045 -4.929433) (xy 0.455307 -4.89778)
      (xy 0.470795 -4.85579) (xy 0.482236 -4.798769) (xy 0.490359 -4.72202) (xy 0.495893 -4.620848)
      (xy 0.499564 -4.490559) (xy 0.502103 -4.326457) (xy 0.503838 -4.164542) (xy 0.510258 -3.513667)
      (xy 0.148167 -3.513667) (xy 0.148167 -4.719191) (xy 0.096287 -4.753184) (xy 0.039896 -4.774838)
      (xy -0.022462 -4.765255) (xy -0.098635 -4.722736) (xy -0.121708 -4.70605) (xy -0.1905 -4.654512)
      (xy -0.1905 -3.513667) (xy -0.550333 -3.513667) (xy -0.550333 -5.503333) (xy -0.1905 -5.503333)
      (xy -0.1905 -4.842781)) (layer F.Mask) (width 0.01))
  )

  (module lts-underground-footprints:LED-5MM (layer F.Cu) (tedit 5813F481) (tstamp 58159371)
    (at 147.5 72.5)
    (descr "LED 5mm round vertical")
    (tags "LED 5mm round vertical")
    (path /5813E289)
    (fp_text reference D4 (at 1.524 4.064) (layer F.SilkS) hide
      (effects (font (size 0.75 0.75) (thickness 0.15)))
    )
    (fp_text value LED (at 1.524 -3.937) (layer F.Fab) hide
      (effects (font (size 0.75 0.75) (thickness 0.15)))
    )
    (fp_line (start -1.5 -1.55) (end -1.5 1.55) (layer F.CrtYd) (width 0.05))
    (fp_arc (start 1.3 0) (end -1.5 1.55) (angle -302) (layer F.CrtYd) (width 0.05))
    (fp_arc (start 1.27 0) (end -1.23 -1.5) (angle 297.5) (layer F.SilkS) (width 0.15))
    (fp_line (start -1.23 1.5) (end -1.23 -1.5) (layer F.SilkS) (width 0.15))
    (pad 1 thru_hole rect (at 0 0 90) (size 2 1.9) (drill 1.00076) (layers *.Cu *.Mask F.SilkS)
      (net 2 "Net-(BAT1-Pad2)"))
    (pad 2 thru_hole circle (at 2.54 0) (size 1.9 1.9) (drill 1.00076) (layers *.Cu *.Mask F.SilkS)
      (net 1 "Net-(BAT1-Pad1)"))
    (model LEDs.3dshapes/LED-5MM.wrl
      (at (xyz 0.05 0 0))
      (scale (xyz 1 1 1))
      (rotate (xyz 0 0 90))
    )
  )

  (module lts-underground-footprints:LED-5MM (layer F.Cu) (tedit 5813F488) (tstamp 5815936B)
    (at 147.5 85)
    (descr "LED 5mm round vertical")
    (tags "LED 5mm round vertical")
    (path /5813E267)
    (fp_text reference D3 (at 1.524 4.064) (layer F.SilkS) hide
      (effects (font (size 0.75 0.75) (thickness 0.15)))
    )
    (fp_text value LED (at 1.524 -3.937) (layer F.Fab) hide
      (effects (font (size 0.75 0.75) (thickness 0.15)))
    )
    (fp_line (start -1.5 -1.55) (end -1.5 1.55) (layer F.CrtYd) (width 0.05))
    (fp_arc (start 1.3 0) (end -1.5 1.55) (angle -302) (layer F.CrtYd) (width 0.05))
    (fp_arc (start 1.27 0) (end -1.23 -1.5) (angle 297.5) (layer F.SilkS) (width 0.15))
    (fp_line (start -1.23 1.5) (end -1.23 -1.5) (layer F.SilkS) (width 0.15))
    (pad 1 thru_hole rect (at 0 0 90) (size 2 1.9) (drill 1.00076) (layers *.Cu *.Mask F.SilkS)
      (net 2 "Net-(BAT1-Pad2)"))
    (pad 2 thru_hole circle (at 2.54 0) (size 1.9 1.9) (drill 1.00076) (layers *.Cu *.Mask F.SilkS)
      (net 1 "Net-(BAT1-Pad1)"))
    (model LEDs.3dshapes/LED-5MM.wrl
      (at (xyz 0.05 0 0))
      (scale (xyz 1 1 1))
      (rotate (xyz 0 0 90))
    )
  )

  (module lts-underground-footprints:LED-5MM (layer F.Cu) (tedit 5813F47B) (tstamp 58159365)
    (at 122.5 85 180)
    (descr "LED 5mm round vertical")
    (tags "LED 5mm round vertical")
    (path /5813E248)
    (fp_text reference D2 (at 1.524 4.064 180) (layer F.SilkS) hide
      (effects (font (size 0.75 0.75) (thickness 0.15)))
    )
    (fp_text value LED (at 1.524 -3.937 180) (layer F.Fab) hide
      (effects (font (size 0.75 0.75) (thickness 0.15)))
    )
    (fp_line (start -1.5 -1.55) (end -1.5 1.55) (layer F.CrtYd) (width 0.05))
    (fp_arc (start 1.3 0) (end -1.5 1.55) (angle -302) (layer F.CrtYd) (width 0.05))
    (fp_arc (start 1.27 0) (end -1.23 -1.5) (angle 297.5) (layer F.SilkS) (width 0.15))
    (fp_line (start -1.23 1.5) (end -1.23 -1.5) (layer F.SilkS) (width 0.15))
    (pad 1 thru_hole rect (at 0 0 270) (size 2 1.9) (drill 1.00076) (layers *.Cu *.Mask F.SilkS)
      (net 2 "Net-(BAT1-Pad2)"))
    (pad 2 thru_hole circle (at 2.54 0 180) (size 1.9 1.9) (drill 1.00076) (layers *.Cu *.Mask F.SilkS)
      (net 1 "Net-(BAT1-Pad1)"))
    (model LEDs.3dshapes/LED-5MM.wrl
      (at (xyz 0.05 0 0))
      (scale (xyz 1 1 1))
      (rotate (xyz 0 0 90))
    )
  )

  (module lts-underground-footprints:LED-5MM (layer F.Cu) (tedit 5813F473) (tstamp 5815935F)
    (at 122.5 72.5 180)
    (descr "LED 5mm round vertical")
    (tags "LED 5mm round vertical")
    (path /5813E05B)
    (fp_text reference D1 (at 1.524 4.064 180) (layer F.SilkS) hide
      (effects (font (size 0.75 0.75) (thickness 0.15)))
    )
    (fp_text value LED (at 1.524 -3.937 180) (layer F.Fab) hide
      (effects (font (size 0.75 0.75) (thickness 0.15)))
    )
    (fp_line (start -1.5 -1.55) (end -1.5 1.55) (layer F.CrtYd) (width 0.05))
    (fp_arc (start 1.3 0) (end -1.5 1.55) (angle -302) (layer F.CrtYd) (width 0.05))
    (fp_arc (start 1.27 0) (end -1.23 -1.5) (angle 297.5) (layer F.SilkS) (width 0.15))
    (fp_line (start -1.23 1.5) (end -1.23 -1.5) (layer F.SilkS) (width 0.15))
    (pad 1 thru_hole rect (at 0 0 270) (size 2 1.9) (drill 1.00076) (layers *.Cu *.Mask F.SilkS)
      (net 2 "Net-(BAT1-Pad2)"))
    (pad 2 thru_hole circle (at 2.54 0 180) (size 1.9 1.9) (drill 1.00076) (layers *.Cu *.Mask F.SilkS)
      (net 1 "Net-(BAT1-Pad1)"))
    (model LEDs.3dshapes/LED-5MM.wrl
      (at (xyz 0.05 0 0))
      (scale (xyz 1 1 1))
      (rotate (xyz 0 0 90))
    )
  )

  (module Mounting_Holes:MountingHole_2.7mm_Pad (layer F.Cu) (tedit 58175EB5) (tstamp 58176A9E)
    (at 115 65)
    (descr "Mounting Hole 2.7mm")
    (tags "mounting hole 2.7mm")
    (path /58176243)
    (fp_text reference MH1 (at 0 -3.7) (layer F.SilkS) hide
      (effects (font (size 1 1) (thickness 0.15)))
    )
    (fp_text value MH (at 0 3.7) (layer F.Fab) hide
      (effects (font (size 1 1) (thickness 0.15)))
    )
    (fp_circle (center 0 0) (end 2.7 0) (layer Cmts.User) (width 0.15))
    (fp_circle (center 0 0) (end 2.95 0) (layer F.CrtYd) (width 0.05))
    (pad 1 thru_hole circle (at 0 0) (size 5.4 5.4) (drill 2.7) (layers *.Cu *.Mask F.SilkS)
      (net 3 /MH))
  )

  (module Mounting_Holes:MountingHole_2.5mm_Pad (layer F.Cu) (tedit 58175EC0) (tstamp 58176AA4)
    (at 155 65)
    (descr "Mounting Hole 2.5mm")
    (tags "mounting hole 2.5mm")
    (path /58176028)
    (fp_text reference MH2 (at 0 -3.5) (layer F.SilkS) hide
      (effects (font (size 1 1) (thickness 0.15)))
    )
    (fp_text value MH (at 0 3.5) (layer F.Fab) hide
      (effects (font (size 1 1) (thickness 0.15)))
    )
    (fp_circle (center 0 0) (end 2.5 0) (layer Cmts.User) (width 0.15))
    (fp_circle (center 0 0) (end 2.75 0) (layer F.CrtYd) (width 0.05))
    (pad 1 thru_hole circle (at 0 0) (size 5 5) (drill 2.5) (layers *.Cu *.Mask F.SilkS)
      (net 3 /MH))
  )

  (module lts-underground-footprints:MPD_BK-913 (layer B.Cu) (tedit 58176016) (tstamp 58159359)
    (at 135 103)
    (path /5813DFCA)
    (fp_text reference BAT1 (at 0.1 0) (layer B.SilkS) hide
      (effects (font (size 0.75 0.75) (thickness 0.15)) (justify mirror))
    )
    (fp_text value MPD_BK-913 (at 0 0) (layer B.Fab) hide
      (effects (font (size 0.75 0.75) (thickness 0.15)) (justify mirror))
    )
    (fp_text user REF** (at 0 0) (layer B.Fab) hide
      (effects (font (size 1 1) (thickness 0.15)) (justify mirror))
    )
    (pad 1 thru_hole circle (at -10.8 0) (size 4 4) (drill 2) (layers *.Cu *.Mask)
      (net 1 "Net-(BAT1-Pad1)"))
    (pad 1 thru_hole circle (at 10.8 0) (size 4 4) (drill 2) (layers *.Cu *.Mask)
      (net 1 "Net-(BAT1-Pad1)"))
    (pad 2 smd circle (at 0 0) (size 8 8) (layers B.Cu B.Paste B.Mask)
      (net 2 "Net-(BAT1-Pad2)"))
  )

  (gr_line (start 133.822585 109.93862) (end 132.66738 109.871762) (layer Edge.Cuts) (width 0.1))
  (gr_line (start 156.848157 95.947547) (end 156.354603 97.089789) (layer Edge.Cuts) (width 0.1))
  (gr_line (start 153.854955 101.146608) (end 153.098211 102.044612) (layer Edge.Cuts) (width 0.1))
  (gr_line (start 158.945521 82.865412) (end 158.919754 84.596443) (layer Edge.Cuts) (width 0.1))
  (gr_line (start 148.324597 106.186908) (end 147.259324 106.830094) (layer Edge.Cuts) (width 0.1))
  (gr_line (start 145.067231 107.917371) (end 143.948295 108.365694) (layer Edge.Cuts) (width 0.1))
  (gr_line (start 151.35001 103.833615) (end 150.373879 104.690796) (layer Edge.Cuts) (width 0.1))
  (gr_line (start 114.326441 98.719018) (end 113.735102 97.581107) (layer Edge.Cuts) (width 0.1))
  (gr_line (start 114.990506 99.812631) (end 114.326441 98.719018) (layer Edge.Cuts) (width 0.1))
  (gr_line (start 149.364092 105.474514) (end 148.324597 106.186908) (layer Edge.Cuts) (width 0.1))
  (gr_line (start 143.948295 108.365694) (end 142.819349 108.753327) (layer Edge.Cuts) (width 0.1))
  (gr_line (start 158.919754 84.596443) (end 158.842387 86.252586) (layer Edge.Cuts) (width 0.1))
  (gr_line (start 147.259324 106.830094) (end 146.172214 107.406199) (layer Edge.Cuts) (width 0.1))
  (gr_line (start 123.494962 107.22001) (end 122.411092 106.629262) (layer Edge.Cuts) (width 0.1))
  (gr_line (start 124.601158 107.753966) (end 123.494962 107.22001) (layer Edge.Cuts) (width 0.1))
  (gr_line (start 133.782407 88.581347) (end 134.108126 88.707893) (layer Edge.Cuts) (width 0.1))
  (gr_line (start 133.500329 88.407464) (end 133.782407 88.581347) (layer Edge.Cuts) (width 0.1))
  (gr_line (start 133.258774 88.188146) (end 133.500329 88.407464) (layer Edge.Cuts) (width 0.1))
  (gr_line (start 158.015062 92.175612) (end 157.67829 93.49283) (layer Edge.Cuts) (width 0.1))
  (gr_line (start 135.943988 88.683706) (end 136.225198 88.540992) (layer Edge.Cuts) (width 0.1))
  (gr_line (start 135.630819 88.773772) (end 135.943988 88.683706) (layer Edge.Cuts) (width 0.1))
  (gr_line (start 135.284288 88.815074) (end 135.630819 88.773772) (layer Edge.Cuts) (width 0.1))
  (gr_line (start 113.213073 96.398029) (end 112.756922 95.168939) (layer Edge.Cuts) (width 0.1))
  (gr_line (start 113.735102 97.581107) (end 113.213073 96.398029) (layer Edge.Cuts) (width 0.1))
  (gr_line (start 132.635276 86.894302) (end 132.745987 87.276457) (layer Edge.Cuts) (width 0.1))
  (gr_line (start 132.549453 86.476168) (end 132.635276 86.894302) (layer Edge.Cuts) (width 0.1))
  (gr_line (start 132.485412 86.023937) (end 132.549453 86.476168) (layer Edge.Cuts) (width 0.1))
  (gr_line (start 158.299762 90.795355) (end 158.015062 92.175612) (layer Edge.Cuts) (width 0.1))
  (gr_line (start 111.122649 85.205442) (end 111.070957 83.577583) (layer Edge.Cuts) (width 0.1))
  (gr_line (start 111.21297 86.780451) (end 111.122649 85.205442) (layer Edge.Cuts) (width 0.1))
  (gr_line (start 152.288543 102.900846) (end 151.35001 103.833615) (layer Edge.Cuts) (width 0.1))
  (gr_line (start 136.056314 109.923309) (end 134.9677 109.945524) (layer Edge.Cuts) (width 0.1))
  (gr_line (start 137.200973 86.902498) (end 137.319891 86.362707) (layer Edge.Cuts) (width 0.1))
  (gr_line (start 137.058514 87.366422) (end 137.200973 86.902498) (layer Edge.Cuts) (width 0.1))
  (gr_line (start 136.891111 87.758364) (end 137.058514 87.366422) (layer Edge.Cuts) (width 0.1))
  (gr_line (start 115.730673 100.862771) (end 114.990506 99.812631) (layer Edge.Cuts) (width 0.1))
  (gr_line (start 116.55037 101.870327) (end 115.730673 100.862771) (layer Edge.Cuts) (width 0.1))
  (gr_line (start 132.384556 83.912066) (end 132.392685 84.481712) (layer Edge.Cuts) (width 0.1))
  (gr_line (start 132.382551 83.317821) (end 132.384556 83.912066) (layer Edge.Cuts) (width 0.1))
  (gr_line (start 132.382551 61.020418) (end 132.382551 83.317821) (layer Edge.Cuts) (width 0.1))
  (gr_line (start 141.684344 109.082375) (end 140.547213 109.354977) (layer Edge.Cuts) (width 0.1))
  (gr_line (start 142.819349 108.753327) (end 141.684344 109.082375) (layer Edge.Cuts) (width 0.1))
  (gr_line (start 111.054476 61.020418) (end 132.382551 61.020418) (layer Edge.Cuts) (width 0.1))
  (gr_line (start 111.054476 81.896073) (end 111.054476 61.020418) (layer Edge.Cuts) (width 0.1))
  (gr_line (start 111.070957 83.577583) (end 111.054476 81.896073) (layer Edge.Cuts) (width 0.1))
  (gr_line (start 132.440023 85.539524) (end 132.485412 86.023937) (layer Edge.Cuts) (width 0.1))
  (gr_line (start 132.410157 85.02481) (end 132.440023 85.539524) (layer Edge.Cuts) (width 0.1))
  (gr_line (start 132.392685 84.481712) (end 132.410157 85.02481) (layer Edge.Cuts) (width 0.1))
  (gr_line (start 156.354603 97.089789) (end 155.808603 98.178447) (layer Edge.Cuts) (width 0.1))
  (gr_line (start 132.66738 109.871762) (end 131.505694 109.745271) (layer Edge.Cuts) (width 0.1))
  (gr_line (start 134.902991 88.811399) (end 135.284288 88.815074) (layer Edge.Cuts) (width 0.1))
  (gr_line (start 134.480614 88.785197) (end 134.902991 88.811399) (layer Edge.Cuts) (width 0.1))
  (gr_line (start 134.108126 88.707893) (end 134.480614 88.785197) (layer Edge.Cuts) (width 0.1))
  (gr_line (start 136.697362 88.082201) (end 136.891111 87.758364) (layer Edge.Cuts) (width 0.1))
  (gr_line (start 136.475851 88.341774) (end 136.697362 88.082201) (layer Edge.Cuts) (width 0.1))
  (gr_line (start 136.225198 88.540992) (end 136.475851 88.341774) (layer Edge.Cuts) (width 0.1))
  (gr_line (start 111.749777 91.197075) (end 111.523132 89.775427) (layer Edge.Cuts) (width 0.1))
  (gr_line (start 112.028681 92.569325) (end 111.749777 91.197075) (layer Edge.Cuts) (width 0.1))
  (gr_line (start 133.054623 87.925288) (end 133.258774 88.188146) (layer Edge.Cuts) (width 0.1))
  (gr_line (start 132.884726 87.62075) (end 133.054623 87.925288) (layer Edge.Cuts) (width 0.1))
  (gr_line (start 132.745987 87.276457) (end 132.884726 87.62075) (layer Edge.Cuts) (width 0.1))
  (gr_line (start 157.67829 93.49283) (end 157.289353 94.749336) (layer Edge.Cuts) (width 0.1))
  (gr_line (start 137.16251 109.855292) (end 136.056314 109.923309) (layer Edge.Cuts) (width 0.1))
  (gr_line (start 138.282359 109.739303) (end 137.16251 109.855292) (layer Edge.Cuts) (width 0.1))
  (gr_line (start 130.341124 109.559495) (end 129.177278 109.31481) (layer Edge.Cuts) (width 0.1))
  (gr_line (start 131.505694 109.745271) (end 130.341124 109.559495) (layer Edge.Cuts) (width 0.1))
  (gr_line (start 128.017753 109.011552) (end 126.866156 108.650099) (layer Edge.Cuts) (width 0.1))
  (gr_line (start 129.177278 109.31481) (end 128.017753 109.011552) (layer Edge.Cuts) (width 0.1))
  (gr_line (start 111.345329 88.303501) (end 111.21297 86.780451) (layer Edge.Cuts) (width 0.1))
  (gr_line (start 111.523132 89.775427) (end 111.345329 88.303501) (layer Edge.Cuts) (width 0.1))
  (gr_line (start 153.098211 102.044612) (end 152.288543 102.900846) (layer Edge.Cuts) (width 0.1))
  (gr_line (start 158.532487 89.349676) (end 158.299762 90.795355) (layer Edge.Cuts) (width 0.1))
  (gr_line (start 134.9677 109.945524) (end 133.822585 109.93862) (layer Edge.Cuts) (width 0.1))
  (gr_line (start 155.808603 98.178447) (end 155.210057 99.215892) (layer Edge.Cuts) (width 0.1))
  (gr_line (start 112.363264 93.892979) (end 112.028681 92.569325) (layer Edge.Cuts) (width 0.1))
  (gr_line (start 112.756922 95.168939) (end 112.363264 93.892979) (layer Edge.Cuts) (width 0.1))
  (gr_line (start 139.411907 109.573225) (end 138.282359 109.739303) (layer Edge.Cuts) (width 0.1))
  (gr_line (start 140.547213 109.354977) (end 139.411907 109.573225) (layer Edge.Cuts) (width 0.1))
  (gr_line (start 117.453018 102.836114) (end 116.55037 101.870327) (layer Edge.Cuts) (width 0.1))
  (gr_line (start 118.371122 103.705477) (end 117.453018 102.836114) (layer Edge.Cuts) (width 0.1))
  (gr_line (start 121.353191 105.982078) (end 120.32481 105.278827) (layer Edge.Cuts) (width 0.1))
  (gr_line (start 122.411092 106.629262) (end 121.353191 105.982078) (layer Edge.Cuts) (width 0.1))
  (gr_line (start 119.329592 104.519829) (end 118.371122 103.705477) (layer Edge.Cuts) (width 0.1))
  (gr_line (start 120.32481 105.278827) (end 119.329592 104.519829) (layer Edge.Cuts) (width 0.1))
  (gr_line (start 150.373879 104.690796) (end 149.364092 105.474514) (layer Edge.Cuts) (width 0.1))
  (gr_line (start 154.558872 100.204496) (end 153.854955 101.146608) (layer Edge.Cuts) (width 0.1))
  (gr_line (start 146.172214 107.406199) (end 145.067231 107.917371) (layer Edge.Cuts) (width 0.1))
  (gr_line (start 125.726096 108.230785) (end 124.601158 107.753966) (layer Edge.Cuts) (width 0.1))
  (gr_line (start 126.866156 108.650099) (end 125.726096 108.230785) (layer Edge.Cuts) (width 0.1))
  (gr_line (start 158.713333 87.836203) (end 158.532487 89.349676) (layer Edge.Cuts) (width 0.1))
  (gr_line (start 137.610376 82.390564) (end 137.617503 81.3144) (layer Edge.Cuts) (width 0.1))
  (gr_line (start 137.58815 83.367665) (end 137.610376 82.390564) (layer Edge.Cuts) (width 0.1))
  (gr_line (start 137.549386 84.249555) (end 137.58815 83.367665) (layer Edge.Cuts) (width 0.1))
  (gr_line (start 157.289353 94.749336) (end 156.848157 95.947547) (layer Edge.Cuts) (width 0.1))
  (gr_line (start 158.842387 86.252586) (end 158.713333 87.836203) (layer Edge.Cuts) (width 0.1))
  (gr_line (start 158.945521 82.865412) (end 158.945521 82.865412) (layer Edge.Cuts) (width 0.1))
  (gr_line (start 137.492694 85.040111) (end 137.549386 84.249555) (layer Edge.Cuts) (width 0.1))
  (gr_line (start 137.41666 85.743207) (end 137.492694 85.040111) (layer Edge.Cuts) (width 0.1))
  (gr_line (start 137.319891 86.362707) (end 137.41666 85.743207) (layer Edge.Cuts) (width 0.1))
  (gr_line (start 158.945462 61.020507) (end 158.945521 82.865412) (layer Edge.Cuts) (width 0.1))
  (gr_line (start 137.617503 61.020507) (end 158.945462 61.020507) (layer Edge.Cuts) (width 0.1))
  (gr_line (start 137.617503 81.3144) (end 137.617503 61.020507) (layer Edge.Cuts) (width 0.1))
  (gr_line (start 155.210057 99.215892) (end 154.558872 100.204496) (layer Edge.Cuts) (width 0.1))
  (gr_line (start 110 60) (end 110 110) (angle 90) (layer Dwgs.User) (width 0.15))
  (gr_line (start 160 60) (end 110 60) (angle 90) (layer Dwgs.User) (width 0.15))
  (gr_line (start 160 110) (end 160 60) (angle 90) (layer Dwgs.User) (width 0.15))
  (gr_line (start 110 110) (end 160 110) (angle 90) (layer Dwgs.User) (width 0.15))

  (segment (start 124.2 103) (end 129.2 108) (width 1) (layer B.Cu) (net 1))
  (segment (start 129.2 108) (end 140.8 108) (width 1) (layer B.Cu) (net 1))
  (segment (start 140.8 108) (end 143.800001 104.999999) (width 1) (layer B.Cu) (net 1))
  (segment (start 143.800001 104.999999) (end 145.8 103) (width 1) (layer B.Cu) (net 1))
  (segment (start 150.04 72.5) (end 150.04 85) (width 1) (layer B.Cu) (net 1))
  (segment (start 150.04 85) (end 150.04 98.76) (width 1) (layer B.Cu) (net 1) (tstamp 581594D3))
  (segment (start 150.04 98.76) (end 145.8 103) (width 1) (layer B.Cu) (net 1) (tstamp 581594D4))
  (segment (start 119.96 72.5) (end 119.96 85) (width 1) (layer B.Cu) (net 1))
  (segment (start 119.96 85) (end 119.96 98.76) (width 1) (layer B.Cu) (net 1) (tstamp 581594CE))
  (segment (start 119.96 98.76) (end 124.2 103) (width 1) (layer B.Cu) (net 1) (tstamp 581594CF))
  (via (at 135 103) (size 0.6) (drill 0.4) (layers F.Cu B.Cu) (net 2))
  (segment (start 147.5 85) (end 147.5 90.5) (width 1) (layer B.Cu) (net 2))
  (segment (start 122.5 90.5) (end 135 103) (width 1) (layer B.Cu) (net 2) (tstamp 581594E1))
  (segment (start 122.5 90.5) (end 122.5 85) (width 1) (layer B.Cu) (net 2))
  (segment (start 147.5 90.5) (end 135 103) (width 1) (layer B.Cu) (net 2) (tstamp 581594E5))
  (segment (start 147.5 72.5) (end 147.5 85) (width 1) (layer B.Cu) (net 2))
  (segment (start 122.5 72.5) (end 122.5 85) (width 1) (layer B.Cu) (net 2))

  (zone (net 3) (net_name /MH) (layer F.Cu) (tstamp 0) (hatch edge 0.508)
    (connect_pads yes (clearance 0.5))
    (min_thickness 0.25)
    (fill yes (arc_segments 16) (thermal_gap 0.5) (thermal_bridge_width 0.5))
    (polygon
      (pts
        (xy 110 110) (xy 160 110) (xy 160 60) (xy 110 60)
      )
    )
    (filled_polygon
      (pts
        (xy 131.707551 83.317821) (xy 131.707777 83.31896) (xy 131.707555 83.320098) (xy 131.70956 83.914343) (xy 131.710303 83.918014)
        (xy 131.709625 83.921697) (xy 131.717754 84.491343) (xy 131.719039 84.497352) (xy 131.718034 84.503416) (xy 131.735506 85.046514)
        (xy 131.737512 85.055139) (xy 131.73629 85.063911) (xy 131.766156 85.578625) (xy 131.769216 85.590399) (xy 131.767967 85.602495)
        (xy 131.813356 86.086908) (xy 131.817981 86.102418) (xy 131.81708 86.11858) (xy 131.881121 86.570811) (xy 131.888108 86.590752)
        (xy 131.888237 86.611884) (xy 131.97406 87.030018) (xy 131.984611 87.055059) (xy 131.986935 87.082128) (xy 132.097646 87.464283)
        (xy 132.11351 87.494879) (xy 132.119908 87.528747) (xy 132.258647 87.87304) (xy 132.282091 87.908869) (xy 132.295254 87.949607)
        (xy 132.465151 88.254146) (xy 132.498498 88.293319) (xy 132.521521 88.339326) (xy 132.725672 88.602184) (xy 132.770074 88.640666)
        (xy 132.805034 88.687891) (xy 133.04659 88.907209) (xy 133.10026 88.939442) (xy 133.146125 88.982064) (xy 133.428203 89.155947)
        (xy 133.485972 89.177432) (xy 133.537961 89.21053) (xy 133.863681 89.337076) (xy 133.919128 89.346835) (xy 133.970963 89.36881)
        (xy 134.343451 89.446114) (xy 134.391939 89.446516) (xy 134.438821 89.458902) (xy 134.861198 89.485104) (xy 134.87895 89.482704)
        (xy 134.896486 89.486368) (xy 135.277783 89.490043) (xy 135.320667 89.481942) (xy 135.364174 89.48533) (xy 135.710705 89.444028)
        (xy 135.762793 89.427056) (xy 135.817384 89.422477) (xy 136.130553 89.332411) (xy 136.187623 89.302961) (xy 136.249463 89.285628)
        (xy 136.530673 89.142914) (xy 136.584415 89.100687) (xy 136.645188 89.069417) (xy 136.895841 88.870199) (xy 136.938048 88.820382)
        (xy 136.989306 88.779939) (xy 137.210817 88.520366) (xy 137.238526 88.47084) (xy 137.276606 88.428758) (xy 137.470355 88.104921)
        (xy 137.485843 88.061525) (xy 137.511862 88.023494) (xy 137.679264 87.631552) (xy 137.686681 87.596288) (xy 137.703777 87.564565)
        (xy 137.846236 87.100642) (xy 137.849045 87.073087) (xy 137.860166 87.047721) (xy 137.979084 86.50793) (xy 137.979518 86.486762)
        (xy 137.986804 86.466882) (xy 138.083573 85.847382) (xy 138.082903 85.831215) (xy 138.087747 85.81578) (xy 138.163781 85.112684)
        (xy 138.162684 85.100342) (xy 138.165965 85.088392) (xy 138.222657 84.297836) (xy 138.221476 84.288417) (xy 138.223735 84.279196)
        (xy 138.236007 84) (xy 145.912756 84) (xy 145.912756 86) (xy 145.956337 86.231611) (xy 146.093219 86.444332)
        (xy 146.302076 86.587038) (xy 146.55 86.637244) (xy 148.45 86.637244) (xy 148.681611 86.593663) (xy 148.894332 86.456781)
        (xy 149.037038 86.247924) (xy 149.040962 86.228549) (xy 149.146669 86.334441) (xy 149.725339 86.574726) (xy 150.351912 86.575273)
        (xy 150.931 86.335999) (xy 151.374441 85.893331) (xy 151.614726 85.314661) (xy 151.615273 84.688088) (xy 151.375999 84.109)
        (xy 150.933331 83.665559) (xy 150.354661 83.425274) (xy 149.728088 83.424727) (xy 149.149 83.664001) (xy 149.043784 83.769033)
        (xy 149.043663 83.768389) (xy 148.906781 83.555668) (xy 148.697924 83.412962) (xy 148.45 83.362756) (xy 146.55 83.362756)
        (xy 146.318389 83.406337) (xy 146.105668 83.543219) (xy 145.962962 83.752076) (xy 145.912756 84) (xy 138.236007 84)
        (xy 138.262499 83.397306) (xy 138.261394 83.390114) (xy 138.262975 83.383015) (xy 138.285201 82.405914) (xy 138.284244 82.400459)
        (xy 138.285361 82.395034) (xy 138.292488 81.31887) (xy 138.292059 81.316634) (xy 138.292503 81.3144) (xy 138.292503 71.5)
        (xy 145.912756 71.5) (xy 145.912756 73.5) (xy 145.956337 73.731611) (xy 146.093219 73.944332) (xy 146.302076 74.087038)
        (xy 146.55 74.137244) (xy 148.45 74.137244) (xy 148.681611 74.093663) (xy 148.894332 73.956781) (xy 149.037038 73.747924)
        (xy 149.040962 73.728549) (xy 149.146669 73.834441) (xy 149.725339 74.074726) (xy 150.351912 74.075273) (xy 150.931 73.835999)
        (xy 151.374441 73.393331) (xy 151.614726 72.814661) (xy 151.615273 72.188088) (xy 151.375999 71.609) (xy 150.933331 71.165559)
        (xy 150.354661 70.925274) (xy 149.728088 70.924727) (xy 149.149 71.164001) (xy 149.043784 71.269033) (xy 149.043663 71.268389)
        (xy 148.906781 71.055668) (xy 148.697924 70.912962) (xy 148.45 70.862756) (xy 146.55 70.862756) (xy 146.318389 70.906337)
        (xy 146.105668 71.043219) (xy 145.962962 71.252076) (xy 145.912756 71.5) (xy 138.292503 71.5) (xy 138.292503 61.695507)
        (xy 158.270464 61.695507) (xy 158.270521 82.860404) (xy 158.244989 84.575648) (xy 158.168667 86.209412) (xy 158.041593 87.768736)
        (xy 157.863884 89.255958) (xy 157.635692 90.673479) (xy 157.357177 92.023751) (xy 157.028491 93.309336) (xy 156.649791 94.532772)
        (xy 156.221155 95.696872) (xy 155.742608 96.804382) (xy 155.214077 97.858209) (xy 154.635373 98.861262) (xy 154.006173 99.81649)
        (xy 153.326051 100.726755) (xy 152.594495 101.594869) (xy 151.805288 102.429466) (xy 150.888958 103.340167) (xy 149.943862 104.170096)
        (xy 148.966027 104.929015) (xy 147.959055 105.61912) (xy 146.926579 106.242504) (xy 145.87225 106.801237) (xy 144.799831 107.297345)
        (xy 143.713014 107.732799) (xy 142.615665 108.109583) (xy 141.511609 108.429659) (xy 140.404745 108.695005) (xy 139.299041 108.907563)
        (xy 138.198452 109.069383) (xy 137.107018 109.182429) (xy 136.028706 109.248731) (xy 134.962877 109.270482) (xy 133.844123 109.263737)
        (xy 132.72346 109.198878) (xy 131.595448 109.076054) (xy 130.463792 108.895529) (xy 129.33221 108.657627) (xy 128.204332 108.362646)
        (xy 127.083856 108.010961) (xy 125.974462 107.602926) (xy 124.879746 107.138917) (xy 123.803385 106.619362) (xy 122.74894 106.044652)
        (xy 121.720068 105.415227) (xy 120.720257 104.731513) (xy 119.753086 103.993906) (xy 119.19514 103.519854) (xy 121.574545 103.519854)
        (xy 121.973336 104.485001) (xy 122.711115 105.224069) (xy 123.675564 105.624544) (xy 124.719854 105.625455) (xy 125.685001 105.226664)
        (xy 126.424069 104.488885) (xy 126.824544 103.524436) (xy 126.824841 103.183187) (xy 134.07484 103.183187) (xy 134.215366 103.523286)
        (xy 134.475345 103.78372) (xy 134.815199 103.924839) (xy 135.183187 103.92516) (xy 135.523286 103.784634) (xy 135.78372 103.524655)
        (xy 135.785713 103.519854) (xy 143.174545 103.519854) (xy 143.573336 104.485001) (xy 144.311115 105.224069) (xy 145.275564 105.624544)
        (xy 146.319854 105.625455) (xy 147.285001 105.226664) (xy 148.024069 104.488885) (xy 148.424544 103.524436) (xy 148.425455 102.480146)
        (xy 148.026664 101.514999) (xy 147.288885 100.775931) (xy 146.324436 100.375456) (xy 145.280146 100.374545) (xy 144.314999 100.773336)
        (xy 143.575931 101.511115) (xy 143.175456 102.475564) (xy 143.174545 103.519854) (xy 135.785713 103.519854) (xy 135.924839 103.184801)
        (xy 135.92516 102.816813) (xy 135.784634 102.476714) (xy 135.524655 102.21628) (xy 135.184801 102.075161) (xy 134.816813 102.07484)
        (xy 134.476714 102.215366) (xy 134.21628 102.475345) (xy 134.075161 102.815199) (xy 134.07484 103.183187) (xy 126.824841 103.183187)
        (xy 126.825455 102.480146) (xy 126.426664 101.514999) (xy 125.688885 100.775931) (xy 124.724436 100.375456) (xy 123.680146 100.374545)
        (xy 122.714999 100.773336) (xy 121.975931 101.511115) (xy 121.575456 102.475564) (xy 121.574545 103.519854) (xy 119.19514 103.519854)
        (xy 118.82204 103.202855) (xy 117.932082 102.360144) (xy 117.059344 101.426359) (xy 116.268982 100.45486) (xy 115.555509 99.442594)
        (xy 114.915046 98.387849) (xy 114.343974 97.288939) (xy 113.838826 96.144118) (xy 113.396339 94.951845) (xy 113.013405 93.710643)
        (xy 112.686994 92.419318) (xy 112.414103 91.076657) (xy 112.19173 89.681803) (xy 112.016812 88.23376) (xy 111.886296 86.731918)
        (xy 111.804864 85.311912) (xy 118.384727 85.311912) (xy 118.624001 85.891) (xy 119.066669 86.334441) (xy 119.645339 86.574726)
        (xy 120.271912 86.575273) (xy 120.851 86.335999) (xy 120.956216 86.230967) (xy 120.956337 86.231611) (xy 121.093219 86.444332)
        (xy 121.302076 86.587038) (xy 121.55 86.637244) (xy 123.45 86.637244) (xy 123.681611 86.593663) (xy 123.894332 86.456781)
        (xy 124.037038 86.247924) (xy 124.087244 86) (xy 124.087244 84) (xy 124.043663 83.768389) (xy 123.906781 83.555668)
        (xy 123.697924 83.412962) (xy 123.45 83.362756) (xy 121.55 83.362756) (xy 121.318389 83.406337) (xy 121.105668 83.543219)
        (xy 120.962962 83.752076) (xy 120.959038 83.771451) (xy 120.853331 83.665559) (xy 120.274661 83.425274) (xy 119.648088 83.424727)
        (xy 119.069 83.664001) (xy 118.625559 84.106669) (xy 118.385274 84.685339) (xy 118.384727 85.311912) (xy 111.804864 85.311912)
        (xy 111.797035 85.175398) (xy 111.745853 83.563577) (xy 111.729476 81.892722) (xy 111.729476 72.811912) (xy 118.384727 72.811912)
        (xy 118.624001 73.391) (xy 119.066669 73.834441) (xy 119.645339 74.074726) (xy 120.271912 74.075273) (xy 120.851 73.835999)
        (xy 120.956216 73.730967) (xy 120.956337 73.731611) (xy 121.093219 73.944332) (xy 121.302076 74.087038) (xy 121.55 74.137244)
        (xy 123.45 74.137244) (xy 123.681611 74.093663) (xy 123.894332 73.956781) (xy 124.037038 73.747924) (xy 124.087244 73.5)
        (xy 124.087244 71.5) (xy 124.043663 71.268389) (xy 123.906781 71.055668) (xy 123.697924 70.912962) (xy 123.45 70.862756)
        (xy 121.55 70.862756) (xy 121.318389 70.906337) (xy 121.105668 71.043219) (xy 120.962962 71.252076) (xy 120.959038 71.271451)
        (xy 120.853331 71.165559) (xy 120.274661 70.925274) (xy 119.648088 70.924727) (xy 119.069 71.164001) (xy 118.625559 71.606669)
        (xy 118.385274 72.185339) (xy 118.384727 72.811912) (xy 111.729476 72.811912) (xy 111.729476 61.695418) (xy 131.707551 61.695418)
      )
    )
  )
  (zone (net 3) (net_name /MH) (layer B.Cu) (tstamp 0) (hatch edge 0.508)
    (connect_pads yes (clearance 0.5))
    (min_thickness 0.25)
    (fill yes (arc_segments 16) (thermal_gap 0.5) (thermal_bridge_width 0.5))
    (polygon
      (pts
        (xy 110 110) (xy 160 110) (xy 160 60) (xy 110 60)
      )
    )
    (filled_polygon
      (pts
        (xy 131.707551 83.317821) (xy 131.707777 83.31896) (xy 131.707555 83.320098) (xy 131.70956 83.914343) (xy 131.710303 83.918014)
        (xy 131.709625 83.921697) (xy 131.717754 84.491343) (xy 131.719039 84.497352) (xy 131.718034 84.503416) (xy 131.735506 85.046514)
        (xy 131.737512 85.055139) (xy 131.73629 85.063911) (xy 131.766156 85.578625) (xy 131.769216 85.590399) (xy 131.767967 85.602495)
        (xy 131.813356 86.086908) (xy 131.817981 86.102418) (xy 131.81708 86.11858) (xy 131.881121 86.570811) (xy 131.888108 86.590752)
        (xy 131.888237 86.611884) (xy 131.97406 87.030018) (xy 131.984611 87.055059) (xy 131.986935 87.082128) (xy 132.097646 87.464283)
        (xy 132.11351 87.494879) (xy 132.119908 87.528747) (xy 132.258647 87.87304) (xy 132.282091 87.908869) (xy 132.295254 87.949607)
        (xy 132.465151 88.254146) (xy 132.498498 88.293319) (xy 132.521521 88.339326) (xy 132.725672 88.602184) (xy 132.770074 88.640666)
        (xy 132.805034 88.687891) (xy 133.04659 88.907209) (xy 133.10026 88.939442) (xy 133.146125 88.982064) (xy 133.428203 89.155947)
        (xy 133.485972 89.177432) (xy 133.537961 89.21053) (xy 133.863681 89.337076) (xy 133.919128 89.346835) (xy 133.970963 89.36881)
        (xy 134.343451 89.446114) (xy 134.391939 89.446516) (xy 134.438821 89.458902) (xy 134.861198 89.485104) (xy 134.87895 89.482704)
        (xy 134.896486 89.486368) (xy 135.277783 89.490043) (xy 135.320667 89.481942) (xy 135.364174 89.48533) (xy 135.710705 89.444028)
        (xy 135.762793 89.427056) (xy 135.817384 89.422477) (xy 136.130553 89.332411) (xy 136.187623 89.302961) (xy 136.249463 89.285628)
        (xy 136.530673 89.142914) (xy 136.584415 89.100687) (xy 136.645188 89.069417) (xy 136.895841 88.870199) (xy 136.938048 88.820382)
        (xy 136.989306 88.779939) (xy 137.210817 88.520366) (xy 137.238526 88.47084) (xy 137.276606 88.428758) (xy 137.470355 88.104921)
        (xy 137.485843 88.061525) (xy 137.511862 88.023494) (xy 137.679264 87.631552) (xy 137.686681 87.596288) (xy 137.703777 87.564565)
        (xy 137.846236 87.100642) (xy 137.849045 87.073087) (xy 137.860166 87.047721) (xy 137.979084 86.50793) (xy 137.979518 86.486762)
        (xy 137.986804 86.466882) (xy 138.083573 85.847382) (xy 138.082903 85.831215) (xy 138.087747 85.81578) (xy 138.163781 85.112684)
        (xy 138.162684 85.100342) (xy 138.165965 85.088392) (xy 138.222657 84.297836) (xy 138.221476 84.288417) (xy 138.223735 84.279196)
        (xy 138.262499 83.397306) (xy 138.261394 83.390114) (xy 138.262975 83.383015) (xy 138.285201 82.405914) (xy 138.284244 82.400459)
        (xy 138.285361 82.395034) (xy 138.292488 81.31887) (xy 138.292059 81.316634) (xy 138.292503 81.3144) (xy 138.292503 61.695507)
        (xy 158.270464 61.695507) (xy 158.270521 82.860404) (xy 158.244989 84.575648) (xy 158.168667 86.209412) (xy 158.041593 87.768736)
        (xy 157.863884 89.255958) (xy 157.635692 90.673479) (xy 157.357177 92.023751) (xy 157.028491 93.309336) (xy 156.649791 94.532772)
        (xy 156.221155 95.696872) (xy 155.742608 96.804382) (xy 155.214077 97.858209) (xy 154.635373 98.861262) (xy 154.006173 99.81649)
        (xy 153.326051 100.726755) (xy 152.594495 101.594869) (xy 151.805288 102.429466) (xy 150.888958 103.340167) (xy 149.943862 104.170096)
        (xy 148.966027 104.929015) (xy 147.959055 105.61912) (xy 146.926579 106.242504) (xy 145.87225 106.801237) (xy 144.799831 107.297345)
        (xy 143.713014 107.732799) (xy 142.615665 108.109583) (xy 142.144939 108.246051) (xy 144.915824 105.475166) (xy 145.275564 105.624544)
        (xy 146.319854 105.625455) (xy 147.285001 105.226664) (xy 148.024069 104.488885) (xy 148.424544 103.524436) (xy 148.425455 102.480146)
        (xy 148.274992 102.115998) (xy 150.835495 99.555495) (xy 151.079365 99.190518) (xy 151.165 98.76) (xy 151.165 86.102407)
        (xy 151.374441 85.893331) (xy 151.614726 85.314661) (xy 151.615273 84.688088) (xy 151.375999 84.109) (xy 151.165 83.897633)
        (xy 151.165 73.602407) (xy 151.374441 73.393331) (xy 151.614726 72.814661) (xy 151.615273 72.188088) (xy 151.375999 71.609)
        (xy 150.933331 71.165559) (xy 150.354661 70.925274) (xy 149.728088 70.924727) (xy 149.149 71.164001) (xy 149.043784 71.269033)
        (xy 149.043663 71.268389) (xy 148.906781 71.055668) (xy 148.697924 70.912962) (xy 148.45 70.862756) (xy 146.55 70.862756)
        (xy 146.318389 70.906337) (xy 146.105668 71.043219) (xy 145.962962 71.252076) (xy 145.912756 71.5) (xy 145.912756 73.5)
        (xy 145.956337 73.731611) (xy 146.093219 73.944332) (xy 146.302076 74.087038) (xy 146.375 74.101806) (xy 146.375 83.395685)
        (xy 146.318389 83.406337) (xy 146.105668 83.543219) (xy 145.962962 83.752076) (xy 145.912756 84) (xy 145.912756 86)
        (xy 145.956337 86.231611) (xy 146.093219 86.444332) (xy 146.302076 86.587038) (xy 146.375 86.601806) (xy 146.375 90.03401)
        (xy 137.414357 98.994653) (xy 135.924005 98.375805) (xy 134.084067 98.374199) (xy 132.584711 98.993721) (xy 123.625 90.03401)
        (xy 123.625 86.604315) (xy 123.681611 86.593663) (xy 123.894332 86.456781) (xy 124.037038 86.247924) (xy 124.087244 86)
        (xy 124.087244 84) (xy 124.043663 83.768389) (xy 123.906781 83.555668) (xy 123.697924 83.412962) (xy 123.625 83.398194)
        (xy 123.625 74.104315) (xy 123.681611 74.093663) (xy 123.894332 73.956781) (xy 124.037038 73.747924) (xy 124.087244 73.5)
        (xy 124.087244 71.5) (xy 124.043663 71.268389) (xy 123.906781 71.055668) (xy 123.697924 70.912962) (xy 123.45 70.862756)
        (xy 121.55 70.862756) (xy 121.318389 70.906337) (xy 121.105668 71.043219) (xy 120.962962 71.252076) (xy 120.959038 71.271451)
        (xy 120.853331 71.165559) (xy 120.274661 70.925274) (xy 119.648088 70.924727) (xy 119.069 71.164001) (xy 118.625559 71.606669)
        (xy 118.385274 72.185339) (xy 118.384727 72.811912) (xy 118.624001 73.391) (xy 118.835 73.602367) (xy 118.835 83.897593)
        (xy 118.625559 84.106669) (xy 118.385274 84.685339) (xy 118.384727 85.311912) (xy 118.624001 85.891) (xy 118.835 86.102367)
        (xy 118.835 98.76) (xy 118.920636 99.190519) (xy 119.054921 99.391491) (xy 119.164505 99.555495) (xy 121.724834 102.115824)
        (xy 121.575456 102.475564) (xy 121.574545 103.519854) (xy 121.973336 104.485001) (xy 122.711115 105.224069) (xy 123.675564 105.624544)
        (xy 124.719854 105.625455) (xy 125.084002 105.474992) (xy 127.865218 108.256208) (xy 127.083856 108.010961) (xy 125.974462 107.602926)
        (xy 124.879746 107.138917) (xy 123.803385 106.619362) (xy 122.74894 106.044652) (xy 121.720068 105.415227) (xy 120.720257 104.731513)
        (xy 119.753086 103.993906) (xy 118.82204 103.202855) (xy 117.932082 102.360144) (xy 117.059344 101.426359) (xy 116.268982 100.45486)
        (xy 115.555509 99.442594) (xy 114.915046 98.387849) (xy 114.343974 97.288939) (xy 113.838826 96.144118) (xy 113.396339 94.951845)
        (xy 113.013405 93.710643) (xy 112.686994 92.419318) (xy 112.414103 91.076657) (xy 112.19173 89.681803) (xy 112.016812 88.23376)
        (xy 111.886296 86.731918) (xy 111.797035 85.175398) (xy 111.745853 83.563577) (xy 111.729476 81.892722) (xy 111.729476 61.695418)
        (xy 131.707551 61.695418)
      )
    )
  )
)
