(module MPD_BK-913 (layer F.Cu) (tedit 58175FF4)
  (fp_text reference REF** (at 0.1 0) (layer F.SilkS)
    (effects (font (size 0.75 0.75) (thickness 0.15)))
  )
  (fp_text value MPD_BK-913 (at 0 0) (layer F.Fab)
    (effects (font (size 0.75 0.75) (thickness 0.15)))
  )
  (fp_text user REF** (at 0 0) (layer F.Fab)
    (effects (font (size 1 1) (thickness 0.15)))
  )
  (pad 1 thru_hole circle (at -10.8 0) (size 4 4) (drill 2) (layers *.Cu *.Mask))
  (pad 1 thru_hole circle (at 10.8 0) (size 4 4) (drill 2) (layers *.Cu *.Mask))
  (pad 2 smd circle (at 0 0) (size 8 8) (layers F.Cu F.Paste F.Mask))
)
