  0
SECTION
  2
HEADER
  9
$ACADVER
  1
AC1014
  9
$HANDSEED
  5
FFFF
  9
$MEASUREMENT
 70
     1
  0
ENDSEC
  0
SECTION
  2
TABLES
  0
TABLE
  2
VPORT
  5
8
330
0
100
AcDbSymbolTable
 70
     4
  0
VPORT
  5
2E
330
8
100
AcDbSymbolTableRecord
100
AcDbViewportTableRecord
  2
*ACTIVE
 70
     0
 10
0.0
 20
0.0
 11
1.0
 21
1.0
 12
210.0
 22
148.5
 13
0.0
 23
0.0
 14
10.0
 24
10.0
 15
10.0
 25
10.0
 16
0.0
 26
0.0
 36
1.0
 17
0.0
 27
0.0
 37
0.0
 40
341.0
 41
1.24
 42
50.0
 43
0.0
 44
0.0
 50
0.0
 51
0.0
 71
     0
 72
   100
 73
     1
 74
     3
 75
     0
 76
     0
 77
     0
 78
     0
  0
ENDTAB
  0
TABLE
  2
LTYPE
  5
5
330
0
100
AcDbSymbolTable
 70
     1
  0
LTYPE
  5
14
330
5
100
AcDbSymbolTableRecord
100
AcDbLinetypeTableRecord
  2
BYBLOCK
 70
     0
  3

 72
    65
 73
     0
 40
0.0
  0
LTYPE
  5
15
330
5
100
AcDbSymbolTableRecord
100
AcDbLinetypeTableRecord
  2
BYLAYER
 70
     0
  3

 72
    65
 73
     0
 40
0.0
  0
LTYPE
  5
16
330
5
100
AcDbSymbolTableRecord
100
AcDbLinetypeTableRecord
  2
CONTINUOUS
 70
     0
  3
Solid line
 72
    65
 73
     0
 40
0.0
  0
ENDTAB
  0
TABLE
  2
LAYER
  5
2
100
AcDbSymbolTable
 70
2
  0
LAYER
  5
50
100
AcDbSymbolTableRecord
100
AcDbLayerTableRecord
  2
0
 70
0
  6
CONTINUOUS
  0
LAYER
  5
51
100
AcDbSymbolTableRecord
100
AcDbLayerTableRecord
  2
Layer_1
 70
0
  6
CONTINUOUS
  0
ENDTAB
  0
TABLE
  2
STYLE
  5
3
330
0
100
AcDbSymbolTable
 70
     1
  0
STYLE
  5
11
330
3
100
AcDbSymbolTableRecord
100
AcDbTextStyleTableRecord
  2
STANDARD
 70
     0
 40
0.0
 41
1.0
 50
0.0
 71
     0
 42
2.5
  3
txt
  4

  0
ENDTAB
  0
TABLE
  2
VIEW
  5
6
330
0
100
AcDbSymbolTable
 70
     0
  0
ENDTAB
  0
TABLE
  2
UCS
  5
7
330
0
100
AcDbSymbolTable
 70
     0
  0
ENDTAB
  0
TABLE
  2
APPID
  5
9
330
0
100
AcDbSymbolTable
 70
     2
  0
APPID
  5
12
330
9
100
AcDbSymbolTableRecord
100
AcDbRegAppTableRecord
  2
ACAD
 70
     0
  0
ENDTAB
  0
TABLE
  2
DIMSTYLE
  5
A
330
0
100
AcDbSymbolTable
 70
     1
  0
DIMSTYLE
105
27
330
A
100
AcDbSymbolTableRecord
100
AcDbDimStyleTableRecord
  2
ISO-25
 70
     0
  3

  4

  5

  6

  7

 40
1.0
 41
2.5
 42
0.625
 43
3.75
 44
1.25
 45
0.0
 46
0.0
 47
0.0
 48
0.0
140
2.5
141
2.5
142
0.0
143
0.03937007874016
144
1.0
145
0.0
146
1.0
147
0.625
 71
     0
 72
     0
 73
     0
 74
     0
 75
     0
 76
     0
 77
     1
 78
     8
170
     0
171
     3
172
     1
173
     0
174
     0
175
     0
176
     0
177
     0
178
     0
270
     2
271
     2
272
     2
273
     2
274
     3
340
11
275
     0
280
     0
281
     0
282
     0
283
     0
284
     8
285
     0
286
     0
287
     3
288
     0
  0
ENDTAB
  0
TABLE
  2
BLOCK_RECORD
  5
1
330
0
100
AcDbSymbolTable
 70
     1
  0
BLOCK_RECORD
  5
1F
330
1
100
AcDbSymbolTableRecord
100
AcDbBlockTableRecord
  2
*MODEL_SPACE
  0
BLOCK_RECORD
  5
1B
330
1
100
AcDbSymbolTableRecord
100
AcDbBlockTableRecord
  2
*PAPER_SPACE
  0
ENDTAB
  0
ENDSEC
  0
SECTION
  2
BLOCKS
  0
BLOCK
  5
20
330
1F
100
AcDbEntity
  8
0
100
AcDbBlockBegin
  2
*MODEL_SPACE
 70
     0
 10
0.0
 20
0.0
 30
0.0
  3
*MODEL_SPACE
  1

  0
ENDBLK
  5
21
330
1F
100
AcDbEntity
  8
0
100
AcDbBlockEnd
  0
BLOCK
  5
1C
330
1B
100
AcDbEntity
 67
     1
  8
0
100
AcDbBlockBegin
  2
*PAPER_SPACE
  1

  0
ENDBLK
  5
1D
330
1B
100
AcDbEntity
 67
     1
  8
0
100
AcDbBlockEnd
  0
ENDSEC
  0
SECTION
  2
ENTITIES
  0
LWPOLYLINE
  5
100
100
AcDbEntity
  8
Layer_1
 62
7
100
AcDbPolyline
 90
103
 70
1
 10
23.945521
 20
27.134588
 30
0.0
 10
23.919754
 20
25.403557
 30
0.0
 10
23.842387
 20
23.747414
 30
0.0
 10
23.713333
 20
22.163797
 30
0.0
 10
23.532487
 20
20.650324
 30
0.0
 10
23.299762
 20
19.204645
 30
0.0
 10
23.015062
 20
17.824388
 30
0.0
 10
22.678290
 20
16.507170
 30
0.0
 10
22.289353
 20
15.250664
 30
0.0
 10
21.848157
 20
14.052453
 30
0.0
 10
21.354603
 20
12.910211
 30
0.0
 10
20.808603
 20
11.821553
 30
0.0
 10
20.210057
 20
10.784108
 30
0.0
 10
19.558872
 20
9.795504
 30
0.0
 10
18.854955
 20
8.853392
 30
0.0
 10
18.098211
 20
7.955388
 30
0.0
 10
17.288543
 20
7.099154
 30
0.0
 10
16.350010
 20
6.166385
 30
0.0
 10
15.373879
 20
5.309204
 30
0.0
 10
14.364092
 20
4.525486
 30
0.0
 10
13.324597
 20
3.813092
 30
0.0
 10
12.259324
 20
3.169906
 30
0.0
 10
11.172214
 20
2.593801
 30
0.0
 10
10.067231
 20
2.082629
 30
0.0
 10
8.948295
 20
1.634306
 30
0.0
 10
7.819349
 20
1.246673
 30
0.0
 10
6.684344
 20
0.917625
 30
0.0
 10
5.547213
 20
0.645023
 30
0.0
 10
4.411907
 20
0.426775
 30
0.0
 10
3.282359
 20
0.260697
 30
0.0
 10
2.162510
 20
0.144708
 30
0.0
 10
1.056314
 20
0.076691
 30
0.0
 10
-0.032300
 20
0.054476
 30
0.0
 10
-1.177415
 20
0.061380
 30
0.0
 10
-2.332620
 20
0.128238
 30
0.0
 10
-3.494306
 20
0.254729
 30
0.0
 10
-4.658876
 20
0.440505
 30
0.0
 10
-5.822722
 20
0.685190
 30
0.0
 10
-6.982247
 20
0.988448
 30
0.0
 10
-8.133844
 20
1.349901
 30
0.0
 10
-9.273904
 20
1.769215
 30
0.0
 10
-10.398842
 20
2.246034
 30
0.0
 10
-11.505038
 20
2.779990
 30
0.0
 10
-12.588908
 20
3.370738
 30
0.0
 10
-13.646809
 20
4.017922
 30
0.0
 10
-14.675190
 20
4.721173
 30
0.0
 10
-15.670408
 20
5.480171
 30
0.0
 10
-16.628878
 20
6.294523
 30
0.0
 10
-17.546982
 20
7.163886
 30
0.0
 10
-18.449630
 20
8.129673
 30
0.0
 10
-19.269327
 20
9.137229
 30
0.0
 10
-20.009494
 20
10.187369
 30
0.0
 10
-20.673559
 20
11.280982
 30
0.0
 10
-21.264898
 20
12.418893
 30
0.0
 10
-21.786927
 20
13.601971
 30
0.0
 10
-22.243078
 20
14.831061
 30
0.0
 10
-22.636736
 20
16.107021
 30
0.0
 10
-22.971319
 20
17.430675
 30
0.0
 10
-23.250223
 20
18.802925
 30
0.0
 10
-23.476868
 20
20.224573
 30
0.0
 10
-23.654671
 20
21.696499
 30
0.0
 10
-23.787030
 20
23.219549
 30
0.0
 10
-23.877351
 20
24.794558
 30
0.0
 10
-23.929043
 20
26.422417
 30
0.0
 10
-23.945524
 20
28.103927
 30
0.0
 10
-23.945524
 20
48.979582
 30
0.0
 10
-2.617449
 20
48.979582
 30
0.0
 10
-2.617449
 20
26.682179
 30
0.0
 10
-2.615444
 20
26.087934
 30
0.0
 10
-2.607315
 20
25.518288
 30
0.0
 10
-2.589843
 20
24.975190
 30
0.0
 10
-2.559977
 20
24.460476
 30
0.0
 10
-2.514588
 20
23.976063
 30
0.0
 10
-2.450547
 20
23.523832
 30
0.0
 10
-2.364724
 20
23.105698
 30
0.0
 10
-2.254013
 20
22.723543
 30
0.0
 10
-2.115274
 20
22.379250
 30
0.0
 10
-1.945377
 20
22.074712
 30
0.0
 10
-1.741226
 20
21.811854
 30
0.0
 10
-1.499671
 20
21.592536
 30
0.0
 10
-1.217593
 20
21.418653
 30
0.0
 10
-0.891874
 20
21.292107
 30
0.0
 10
-0.519386
 20
21.214803
 30
0.0
 10
-0.097009
 20
21.188601
 30
0.0
 10
0.284288
 20
21.184926
 30
0.0
 10
0.630819
 20
21.226228
 30
0.0
 10
0.943988
 20
21.316294
 30
0.0
 10
1.225198
 20
21.459008
 30
0.0
 10
1.475851
 20
21.658226
 30
0.0
 10
1.697362
 20
21.917799
 30
0.0
 10
1.891111
 20
22.241636
 30
0.0
 10
2.058514
 20
22.633578
 30
0.0
 10
2.200973
 20
23.097502
 30
0.0
 10
2.319891
 20
23.637293
 30
0.0
 10
2.416660
 20
24.256793
 30
0.0
 10
2.492694
 20
24.959889
 30
0.0
 10
2.549386
 20
25.750445
 30
0.0
 10
2.588150
 20
26.632335
 30
0.0
 10
2.610376
 20
27.609436
 30
0.0
 10
2.617503
 20
28.685600
 30
0.0
 10
2.617503
 20
48.979493
 30
0.0
 10
23.945462
 20
48.979493
 30
0.0
 10
23.945521
 20
27.134588
 30
0.0
  0
ENDSEC
  0
SECTION
  2
OBJECTS
  0
DICTIONARY
  5
C
330
0
100
AcDbDictionary
  3
ACAD_GROUP
350
D
  3
ACAD_MLINESTYLE
350
17
  0
DICTIONARY
  5
D
330
C
100
AcDbDictionary
  0
DICTIONARY
  5
1A
330
C
100
AcDbDictionary
  0
DICTIONARY
  5
17
330
C
100
AcDbDictionary
  3
STANDARD
350
18
  0
DICTIONARY
  5
19
330
C
100
AcDbDictionary
  0
ENDSEC
  0
EOF
